G04 #@! TF.GenerationSoftware,KiCad,Pcbnew,5.1.12-84ad8e8a86~92~ubuntu20.04.1*
G04 #@! TF.CreationDate,2021-12-15T17:31:49+01:00*
G04 #@! TF.ProjectId,mcu,6d63752e-6b69-4636-9164-5f7063625858,rev?*
G04 #@! TF.SameCoordinates,Original*
G04 #@! TF.FileFunction,Copper,L1,Top*
G04 #@! TF.FilePolarity,Positive*
%FSLAX46Y46*%
G04 Gerber Fmt 4.6, Leading zero omitted, Abs format (unit mm)*
G04 Created by KiCad (PCBNEW 5.1.12-84ad8e8a86~92~ubuntu20.04.1) date 2021-12-15 17:31:49*
%MOMM*%
%LPD*%
G01*
G04 APERTURE LIST*
G04 #@! TA.AperFunction,ComponentPad*
%ADD10C,4.700000*%
G04 #@! TD*
G04 #@! TA.AperFunction,ComponentPad*
%ADD11R,1.700000X1.700000*%
G04 #@! TD*
G04 #@! TA.AperFunction,ComponentPad*
%ADD12O,1.700000X1.700000*%
G04 #@! TD*
G04 #@! TA.AperFunction,SMDPad,CuDef*
%ADD13R,1.330000X1.330000*%
G04 #@! TD*
G04 #@! TA.AperFunction,SMDPad,CuDef*
%ADD14R,2.000000X0.900000*%
G04 #@! TD*
G04 #@! TA.AperFunction,SMDPad,CuDef*
%ADD15R,0.900000X2.000000*%
G04 #@! TD*
G04 #@! TA.AperFunction,SMDPad,CuDef*
%ADD16R,2.300000X0.900000*%
G04 #@! TD*
G04 #@! TA.AperFunction,SMDPad,CuDef*
%ADD17C,0.100000*%
G04 #@! TD*
G04 #@! TA.AperFunction,SMDPad,CuDef*
%ADD18R,0.600000X1.200000*%
G04 #@! TD*
G04 #@! TA.AperFunction,ViaPad*
%ADD19C,0.800000*%
G04 #@! TD*
G04 #@! TA.AperFunction,ViaPad*
%ADD20C,1.000000*%
G04 #@! TD*
G04 #@! TA.AperFunction,Conductor*
%ADD21C,0.600000*%
G04 #@! TD*
G04 #@! TA.AperFunction,Conductor*
%ADD22C,0.200000*%
G04 #@! TD*
G04 APERTURE END LIST*
G04 #@! TA.AperFunction,SMDPad,CuDef*
G36*
G01*
X138253500Y-81329500D02*
X138253500Y-79929500D01*
G75*
G02*
X138403500Y-79779500I150000J0D01*
G01*
X138703500Y-79779500D01*
G75*
G02*
X138853500Y-79929500I0J-150000D01*
G01*
X138853500Y-81329500D01*
G75*
G02*
X138703500Y-81479500I-150000J0D01*
G01*
X138403500Y-81479500D01*
G75*
G02*
X138253500Y-81329500I0J150000D01*
G01*
G37*
G04 #@! TD.AperFunction*
G04 #@! TA.AperFunction,SMDPad,CuDef*
G36*
G01*
X139503500Y-81329500D02*
X139503500Y-79929500D01*
G75*
G02*
X139653500Y-79779500I150000J0D01*
G01*
X139953500Y-79779500D01*
G75*
G02*
X140103500Y-79929500I0J-150000D01*
G01*
X140103500Y-81329500D01*
G75*
G02*
X139953500Y-81479500I-150000J0D01*
G01*
X139653500Y-81479500D01*
G75*
G02*
X139503500Y-81329500I0J150000D01*
G01*
G37*
G04 #@! TD.AperFunction*
G04 #@! TA.AperFunction,SMDPad,CuDef*
G36*
G01*
X140753500Y-81329500D02*
X140753500Y-79929500D01*
G75*
G02*
X140903500Y-79779500I150000J0D01*
G01*
X141203500Y-79779500D01*
G75*
G02*
X141353500Y-79929500I0J-150000D01*
G01*
X141353500Y-81329500D01*
G75*
G02*
X141203500Y-81479500I-150000J0D01*
G01*
X140903500Y-81479500D01*
G75*
G02*
X140753500Y-81329500I0J150000D01*
G01*
G37*
G04 #@! TD.AperFunction*
G04 #@! TA.AperFunction,SMDPad,CuDef*
G36*
G01*
X142003500Y-81329500D02*
X142003500Y-79929500D01*
G75*
G02*
X142153500Y-79779500I150000J0D01*
G01*
X142453500Y-79779500D01*
G75*
G02*
X142603500Y-79929500I0J-150000D01*
G01*
X142603500Y-81329500D01*
G75*
G02*
X142453500Y-81479500I-150000J0D01*
G01*
X142153500Y-81479500D01*
G75*
G02*
X142003500Y-81329500I0J150000D01*
G01*
G37*
G04 #@! TD.AperFunction*
G04 #@! TA.AperFunction,SMDPad,CuDef*
G36*
G01*
X136203500Y-78429500D02*
X136203500Y-76129500D01*
G75*
G02*
X136453500Y-75879500I250000J0D01*
G01*
X136953500Y-75879500D01*
G75*
G02*
X137203500Y-76129500I0J-250000D01*
G01*
X137203500Y-78429500D01*
G75*
G02*
X136953500Y-78679500I-250000J0D01*
G01*
X136453500Y-78679500D01*
G75*
G02*
X136203500Y-78429500I0J250000D01*
G01*
G37*
G04 #@! TD.AperFunction*
G04 #@! TA.AperFunction,SMDPad,CuDef*
G36*
G01*
X143653500Y-78429500D02*
X143653500Y-76129500D01*
G75*
G02*
X143903500Y-75879500I250000J0D01*
G01*
X144403500Y-75879500D01*
G75*
G02*
X144653500Y-76129500I0J-250000D01*
G01*
X144653500Y-78429500D01*
G75*
G02*
X144403500Y-78679500I-250000J0D01*
G01*
X143903500Y-78679500D01*
G75*
G02*
X143653500Y-78429500I0J250000D01*
G01*
G37*
G04 #@! TD.AperFunction*
D10*
X121000000Y-74000000D03*
G04 #@! TA.AperFunction,SMDPad,CuDef*
G36*
G01*
X152433000Y-101986500D02*
X153383000Y-101986500D01*
G75*
G02*
X153633000Y-102236500I0J-250000D01*
G01*
X153633000Y-102911500D01*
G75*
G02*
X153383000Y-103161500I-250000J0D01*
G01*
X152433000Y-103161500D01*
G75*
G02*
X152183000Y-102911500I0J250000D01*
G01*
X152183000Y-102236500D01*
G75*
G02*
X152433000Y-101986500I250000J0D01*
G01*
G37*
G04 #@! TD.AperFunction*
G04 #@! TA.AperFunction,SMDPad,CuDef*
G36*
G01*
X152433000Y-99911500D02*
X153383000Y-99911500D01*
G75*
G02*
X153633000Y-100161500I0J-250000D01*
G01*
X153633000Y-100836500D01*
G75*
G02*
X153383000Y-101086500I-250000J0D01*
G01*
X152433000Y-101086500D01*
G75*
G02*
X152183000Y-100836500I0J250000D01*
G01*
X152183000Y-100161500D01*
G75*
G02*
X152433000Y-99911500I250000J0D01*
G01*
G37*
G04 #@! TD.AperFunction*
G04 #@! TA.AperFunction,SMDPad,CuDef*
G36*
G01*
X149441500Y-105313500D02*
X149441500Y-104363500D01*
G75*
G02*
X149691500Y-104113500I250000J0D01*
G01*
X150366500Y-104113500D01*
G75*
G02*
X150616500Y-104363500I0J-250000D01*
G01*
X150616500Y-105313500D01*
G75*
G02*
X150366500Y-105563500I-250000J0D01*
G01*
X149691500Y-105563500D01*
G75*
G02*
X149441500Y-105313500I0J250000D01*
G01*
G37*
G04 #@! TD.AperFunction*
G04 #@! TA.AperFunction,SMDPad,CuDef*
G36*
G01*
X151516500Y-105313500D02*
X151516500Y-104363500D01*
G75*
G02*
X151766500Y-104113500I250000J0D01*
G01*
X152441500Y-104113500D01*
G75*
G02*
X152691500Y-104363500I0J-250000D01*
G01*
X152691500Y-105313500D01*
G75*
G02*
X152441500Y-105563500I-250000J0D01*
G01*
X151766500Y-105563500D01*
G75*
G02*
X151516500Y-105313500I0J250000D01*
G01*
G37*
G04 #@! TD.AperFunction*
G04 #@! TA.AperFunction,SMDPad,CuDef*
G36*
G01*
X156755500Y-104363500D02*
X156755500Y-105313500D01*
G75*
G02*
X156505500Y-105563500I-250000J0D01*
G01*
X155830500Y-105563500D01*
G75*
G02*
X155580500Y-105313500I0J250000D01*
G01*
X155580500Y-104363500D01*
G75*
G02*
X155830500Y-104113500I250000J0D01*
G01*
X156505500Y-104113500D01*
G75*
G02*
X156755500Y-104363500I0J-250000D01*
G01*
G37*
G04 #@! TD.AperFunction*
G04 #@! TA.AperFunction,SMDPad,CuDef*
G36*
G01*
X154680500Y-104363500D02*
X154680500Y-105313500D01*
G75*
G02*
X154430500Y-105563500I-250000J0D01*
G01*
X153755500Y-105563500D01*
G75*
G02*
X153505500Y-105313500I0J250000D01*
G01*
X153505500Y-104363500D01*
G75*
G02*
X153755500Y-104113500I250000J0D01*
G01*
X154430500Y-104113500D01*
G75*
G02*
X154680500Y-104363500I0J-250000D01*
G01*
G37*
G04 #@! TD.AperFunction*
G04 #@! TA.AperFunction,SMDPad,CuDef*
G36*
G01*
X126395500Y-106971500D02*
X125445500Y-106971500D01*
G75*
G02*
X125195500Y-106721500I0J250000D01*
G01*
X125195500Y-106046500D01*
G75*
G02*
X125445500Y-105796500I250000J0D01*
G01*
X126395500Y-105796500D01*
G75*
G02*
X126645500Y-106046500I0J-250000D01*
G01*
X126645500Y-106721500D01*
G75*
G02*
X126395500Y-106971500I-250000J0D01*
G01*
G37*
G04 #@! TD.AperFunction*
G04 #@! TA.AperFunction,SMDPad,CuDef*
G36*
G01*
X126395500Y-104896500D02*
X125445500Y-104896500D01*
G75*
G02*
X125195500Y-104646500I0J250000D01*
G01*
X125195500Y-103971500D01*
G75*
G02*
X125445500Y-103721500I250000J0D01*
G01*
X126395500Y-103721500D01*
G75*
G02*
X126645500Y-103971500I0J-250000D01*
G01*
X126645500Y-104646500D01*
G75*
G02*
X126395500Y-104896500I-250000J0D01*
G01*
G37*
G04 #@! TD.AperFunction*
D11*
X122428000Y-96329500D03*
D12*
X122428000Y-93789500D03*
X122428000Y-91249500D03*
X122428000Y-88709500D03*
X122428000Y-86169500D03*
X122428000Y-83629500D03*
G04 #@! TA.AperFunction,SMDPad,CuDef*
G36*
G01*
X156469501Y-103136500D02*
X155569499Y-103136500D01*
G75*
G02*
X155319500Y-102886501I0J249999D01*
G01*
X155319500Y-102186499D01*
G75*
G02*
X155569499Y-101936500I249999J0D01*
G01*
X156469501Y-101936500D01*
G75*
G02*
X156719500Y-102186499I0J-249999D01*
G01*
X156719500Y-102886501D01*
G75*
G02*
X156469501Y-103136500I-249999J0D01*
G01*
G37*
G04 #@! TD.AperFunction*
G04 #@! TA.AperFunction,SMDPad,CuDef*
G36*
G01*
X156469501Y-101136500D02*
X155569499Y-101136500D01*
G75*
G02*
X155319500Y-100886501I0J249999D01*
G01*
X155319500Y-100186499D01*
G75*
G02*
X155569499Y-99936500I249999J0D01*
G01*
X156469501Y-99936500D01*
G75*
G02*
X156719500Y-100186499I0J-249999D01*
G01*
X156719500Y-100886501D01*
G75*
G02*
X156469501Y-101136500I-249999J0D01*
G01*
G37*
G04 #@! TD.AperFunction*
D11*
X153781000Y-82423000D03*
D12*
X153781000Y-84963000D03*
X153781000Y-87503000D03*
X153781000Y-90043000D03*
X153781000Y-92583000D03*
X153781000Y-95123000D03*
X153781000Y-97663000D03*
G04 #@! TA.AperFunction,SMDPad,CuDef*
G36*
G01*
X149336000Y-78977000D02*
X149336000Y-77577000D01*
G75*
G02*
X149486000Y-77427000I150000J0D01*
G01*
X149786000Y-77427000D01*
G75*
G02*
X149936000Y-77577000I0J-150000D01*
G01*
X149936000Y-78977000D01*
G75*
G02*
X149786000Y-79127000I-150000J0D01*
G01*
X149486000Y-79127000D01*
G75*
G02*
X149336000Y-78977000I0J150000D01*
G01*
G37*
G04 #@! TD.AperFunction*
G04 #@! TA.AperFunction,SMDPad,CuDef*
G36*
G01*
X150586000Y-78977000D02*
X150586000Y-77577000D01*
G75*
G02*
X150736000Y-77427000I150000J0D01*
G01*
X151036000Y-77427000D01*
G75*
G02*
X151186000Y-77577000I0J-150000D01*
G01*
X151186000Y-78977000D01*
G75*
G02*
X151036000Y-79127000I-150000J0D01*
G01*
X150736000Y-79127000D01*
G75*
G02*
X150586000Y-78977000I0J150000D01*
G01*
G37*
G04 #@! TD.AperFunction*
G04 #@! TA.AperFunction,SMDPad,CuDef*
G36*
G01*
X151836000Y-78977000D02*
X151836000Y-77577000D01*
G75*
G02*
X151986000Y-77427000I150000J0D01*
G01*
X152286000Y-77427000D01*
G75*
G02*
X152436000Y-77577000I0J-150000D01*
G01*
X152436000Y-78977000D01*
G75*
G02*
X152286000Y-79127000I-150000J0D01*
G01*
X151986000Y-79127000D01*
G75*
G02*
X151836000Y-78977000I0J150000D01*
G01*
G37*
G04 #@! TD.AperFunction*
G04 #@! TA.AperFunction,SMDPad,CuDef*
G36*
G01*
X153086000Y-78977000D02*
X153086000Y-77577000D01*
G75*
G02*
X153236000Y-77427000I150000J0D01*
G01*
X153536000Y-77427000D01*
G75*
G02*
X153686000Y-77577000I0J-150000D01*
G01*
X153686000Y-78977000D01*
G75*
G02*
X153536000Y-79127000I-150000J0D01*
G01*
X153236000Y-79127000D01*
G75*
G02*
X153086000Y-78977000I0J150000D01*
G01*
G37*
G04 #@! TD.AperFunction*
G04 #@! TA.AperFunction,SMDPad,CuDef*
G36*
G01*
X147286000Y-76077000D02*
X147286000Y-73777000D01*
G75*
G02*
X147536000Y-73527000I250000J0D01*
G01*
X148036000Y-73527000D01*
G75*
G02*
X148286000Y-73777000I0J-250000D01*
G01*
X148286000Y-76077000D01*
G75*
G02*
X148036000Y-76327000I-250000J0D01*
G01*
X147536000Y-76327000D01*
G75*
G02*
X147286000Y-76077000I0J250000D01*
G01*
G37*
G04 #@! TD.AperFunction*
G04 #@! TA.AperFunction,SMDPad,CuDef*
G36*
G01*
X154736000Y-76077000D02*
X154736000Y-73777000D01*
G75*
G02*
X154986000Y-73527000I250000J0D01*
G01*
X155486000Y-73527000D01*
G75*
G02*
X155736000Y-73777000I0J-250000D01*
G01*
X155736000Y-76077000D01*
G75*
G02*
X155486000Y-76327000I-250000J0D01*
G01*
X154986000Y-76327000D01*
G75*
G02*
X154736000Y-76077000I0J250000D01*
G01*
G37*
G04 #@! TD.AperFunction*
G04 #@! TA.AperFunction,SMDPad,CuDef*
G36*
G01*
X150083500Y-89497500D02*
X151033500Y-89497500D01*
G75*
G02*
X151283500Y-89747500I0J-250000D01*
G01*
X151283500Y-90422500D01*
G75*
G02*
X151033500Y-90672500I-250000J0D01*
G01*
X150083500Y-90672500D01*
G75*
G02*
X149833500Y-90422500I0J250000D01*
G01*
X149833500Y-89747500D01*
G75*
G02*
X150083500Y-89497500I250000J0D01*
G01*
G37*
G04 #@! TD.AperFunction*
G04 #@! TA.AperFunction,SMDPad,CuDef*
G36*
G01*
X150083500Y-91572500D02*
X151033500Y-91572500D01*
G75*
G02*
X151283500Y-91822500I0J-250000D01*
G01*
X151283500Y-92497500D01*
G75*
G02*
X151033500Y-92747500I-250000J0D01*
G01*
X150083500Y-92747500D01*
G75*
G02*
X149833500Y-92497500I0J250000D01*
G01*
X149833500Y-91822500D01*
G75*
G02*
X150083500Y-91572500I250000J0D01*
G01*
G37*
G04 #@! TD.AperFunction*
G04 #@! TA.AperFunction,SMDPad,CuDef*
G36*
G01*
X151033500Y-97128000D02*
X150083500Y-97128000D01*
G75*
G02*
X149833500Y-96878000I0J250000D01*
G01*
X149833500Y-96203000D01*
G75*
G02*
X150083500Y-95953000I250000J0D01*
G01*
X151033500Y-95953000D01*
G75*
G02*
X151283500Y-96203000I0J-250000D01*
G01*
X151283500Y-96878000D01*
G75*
G02*
X151033500Y-97128000I-250000J0D01*
G01*
G37*
G04 #@! TD.AperFunction*
G04 #@! TA.AperFunction,SMDPad,CuDef*
G36*
G01*
X151033500Y-99203000D02*
X150083500Y-99203000D01*
G75*
G02*
X149833500Y-98953000I0J250000D01*
G01*
X149833500Y-98278000D01*
G75*
G02*
X150083500Y-98028000I250000J0D01*
G01*
X151033500Y-98028000D01*
G75*
G02*
X151283500Y-98278000I0J-250000D01*
G01*
X151283500Y-98953000D01*
G75*
G02*
X151033500Y-99203000I-250000J0D01*
G01*
G37*
G04 #@! TD.AperFunction*
G04 #@! TA.AperFunction,SMDPad,CuDef*
G36*
G01*
X126295999Y-77711500D02*
X127196001Y-77711500D01*
G75*
G02*
X127446000Y-77961499I0J-249999D01*
G01*
X127446000Y-78661501D01*
G75*
G02*
X127196001Y-78911500I-249999J0D01*
G01*
X126295999Y-78911500D01*
G75*
G02*
X126046000Y-78661501I0J249999D01*
G01*
X126046000Y-77961499D01*
G75*
G02*
X126295999Y-77711500I249999J0D01*
G01*
G37*
G04 #@! TD.AperFunction*
G04 #@! TA.AperFunction,SMDPad,CuDef*
G36*
G01*
X126295999Y-79711500D02*
X127196001Y-79711500D01*
G75*
G02*
X127446000Y-79961499I0J-249999D01*
G01*
X127446000Y-80661501D01*
G75*
G02*
X127196001Y-80911500I-249999J0D01*
G01*
X126295999Y-80911500D01*
G75*
G02*
X126046000Y-80661501I0J249999D01*
G01*
X126046000Y-79961499D01*
G75*
G02*
X126295999Y-79711500I249999J0D01*
G01*
G37*
G04 #@! TD.AperFunction*
G04 #@! TA.AperFunction,SMDPad,CuDef*
G36*
G01*
X133153999Y-79648000D02*
X134054001Y-79648000D01*
G75*
G02*
X134304000Y-79897999I0J-249999D01*
G01*
X134304000Y-80598001D01*
G75*
G02*
X134054001Y-80848000I-249999J0D01*
G01*
X133153999Y-80848000D01*
G75*
G02*
X132904000Y-80598001I0J249999D01*
G01*
X132904000Y-79897999D01*
G75*
G02*
X133153999Y-79648000I249999J0D01*
G01*
G37*
G04 #@! TD.AperFunction*
G04 #@! TA.AperFunction,SMDPad,CuDef*
G36*
G01*
X133153999Y-77648000D02*
X134054001Y-77648000D01*
G75*
G02*
X134304000Y-77897999I0J-249999D01*
G01*
X134304000Y-78598001D01*
G75*
G02*
X134054001Y-78848000I-249999J0D01*
G01*
X133153999Y-78848000D01*
G75*
G02*
X132904000Y-78598001I0J249999D01*
G01*
X132904000Y-77897999D01*
G75*
G02*
X133153999Y-77648000I249999J0D01*
G01*
G37*
G04 #@! TD.AperFunction*
D10*
X121000000Y-106000000D03*
D13*
X140503000Y-99074500D03*
X138668000Y-99074500D03*
X136833000Y-99074500D03*
X136833000Y-97239500D03*
X136833000Y-95404500D03*
X138668000Y-95404500D03*
X140503000Y-95404500D03*
X140503000Y-97239500D03*
X138668000Y-97239500D03*
D14*
X129168000Y-104739500D03*
X129168000Y-103469500D03*
X129168000Y-102199500D03*
X129168000Y-100929500D03*
X129168000Y-99659500D03*
X129168000Y-98389500D03*
X129168000Y-97119500D03*
X129168000Y-95849500D03*
X129168000Y-94579500D03*
X129168000Y-93309500D03*
X129168000Y-92039500D03*
X129168000Y-90769500D03*
X129168000Y-89499500D03*
X129168000Y-88229500D03*
D15*
X131953000Y-87229500D03*
X133223000Y-87229500D03*
X134493000Y-87229500D03*
X135763000Y-87229500D03*
X137033000Y-87229500D03*
X138303000Y-87229500D03*
X139573000Y-87229500D03*
X140843000Y-87229500D03*
X142113000Y-87229500D03*
X143383000Y-87229500D03*
D14*
X146168000Y-88229500D03*
X146168000Y-89499500D03*
X146168000Y-90769500D03*
X146168000Y-92039500D03*
X146168000Y-93309500D03*
X146168000Y-94579500D03*
X146168000Y-95849500D03*
X146168000Y-97119500D03*
X146168000Y-98389500D03*
X146168000Y-99659500D03*
X146168000Y-100929500D03*
X146168000Y-102199500D03*
X146168000Y-103469500D03*
X146168000Y-104739500D03*
D16*
X124260500Y-102274500D03*
X124260500Y-99274500D03*
G04 #@! TA.AperFunction,SMDPad,CuDef*
D17*
G36*
X118810500Y-99908000D02*
G01*
X122935500Y-99908000D01*
X122935500Y-100324500D01*
X125410500Y-100324500D01*
X125410500Y-101224500D01*
X122935500Y-101224500D01*
X122935500Y-101641000D01*
X118810500Y-101641000D01*
X118810500Y-99908000D01*
G37*
G04 #@! TD.AperFunction*
D18*
X129921000Y-80815500D03*
X128971000Y-78315500D03*
X130871000Y-78315500D03*
X123378000Y-78315500D03*
X121478000Y-78315500D03*
X122428000Y-80815500D03*
D19*
X138684000Y-98158300D03*
X140512800Y-98158300D03*
X139598400Y-99072700D03*
X137769600Y-99072700D03*
X139598400Y-97243900D03*
X137769600Y-97243900D03*
X137769600Y-95415100D03*
X139598400Y-95415100D03*
X136842500Y-98158300D03*
D20*
X142303500Y-82296000D03*
X123825000Y-103695500D03*
X120015000Y-78295500D03*
X136842500Y-104739500D03*
X151447500Y-102552500D03*
X145224500Y-86296500D03*
D19*
X136855200Y-96329500D03*
X140512800Y-96329500D03*
X138684000Y-96329500D03*
X135509000Y-80264000D03*
X148958500Y-96530000D03*
X150558500Y-93853000D03*
X137477500Y-75247500D03*
X138684000Y-76771500D03*
X139954000Y-75247500D03*
X141224000Y-76771500D03*
D20*
X126365000Y-99250500D03*
X120396000Y-96964500D03*
D19*
X131191000Y-102171500D03*
X119316500Y-97726500D03*
X148717000Y-89217500D03*
D20*
X144018000Y-89217500D03*
X132195991Y-96404009D03*
D21*
X136855200Y-98411200D02*
X136833000Y-98389000D01*
X136855200Y-99314000D02*
X136855200Y-98411200D01*
X140512800Y-98398800D02*
X140503000Y-98389000D01*
X140512800Y-99314000D02*
X140512800Y-98398800D01*
X138678600Y-98399600D02*
X138668000Y-98389000D01*
X152908000Y-103145500D02*
X152907996Y-103145504D01*
X124284500Y-102298500D02*
X124260500Y-102274500D01*
X146231500Y-104739500D02*
X136842500Y-104739500D01*
X129231500Y-104739500D02*
X136842500Y-104739500D01*
X151447500Y-102552500D02*
X152908000Y-102552500D01*
X152104000Y-104838500D02*
X154093000Y-104838500D01*
X151447500Y-104182000D02*
X152104000Y-104838500D01*
X151447500Y-102552500D02*
X151447500Y-104182000D01*
X142303500Y-82296000D02*
X142303500Y-80629500D01*
X123825000Y-102710000D02*
X124260500Y-102274500D01*
X123825000Y-103695500D02*
X123825000Y-102710000D01*
X124735500Y-103695500D02*
X125349000Y-104309000D01*
X123825000Y-103695500D02*
X124735500Y-103695500D01*
X144291500Y-87229500D02*
X145224500Y-86296500D01*
X143383000Y-87229500D02*
X144291500Y-87229500D01*
X126047500Y-104309000D02*
X125349000Y-104309000D01*
X121458000Y-78295500D02*
X121478000Y-78315500D01*
X120015000Y-78295500D02*
X121458000Y-78295500D01*
X136855200Y-95426700D02*
X136833000Y-95404500D01*
X136855200Y-96329500D02*
X136855200Y-95426700D01*
X136855200Y-97217300D02*
X136833000Y-97239500D01*
X136855200Y-96329500D02*
X136855200Y-97217300D01*
X136842500Y-99065000D02*
X136833000Y-99074500D01*
X136842500Y-98158300D02*
X136842500Y-99065000D01*
X140512800Y-99064700D02*
X140503000Y-99074500D01*
X140512800Y-98158300D02*
X140512800Y-99064700D01*
X140512800Y-95414300D02*
X140503000Y-95404500D01*
X140512800Y-96329500D02*
X140512800Y-95414300D01*
X140512800Y-97229700D02*
X140503000Y-97239500D01*
X140512800Y-96329500D02*
X140512800Y-97229700D01*
X138666200Y-99072700D02*
X138668000Y-99074500D01*
X137769600Y-99072700D02*
X138666200Y-99072700D01*
X138663600Y-97243900D02*
X138668000Y-97239500D01*
X137769600Y-97243900D02*
X138663600Y-97243900D01*
X138657400Y-95415100D02*
X138668000Y-95404500D01*
X137769600Y-95415100D02*
X138657400Y-95415100D01*
X135493000Y-80248000D02*
X135509000Y-80264000D01*
X133604000Y-80248000D02*
X135493000Y-80248000D01*
X148958500Y-96530000D02*
X150495000Y-96530000D01*
X150558500Y-92160000D02*
X150558500Y-93853000D01*
D22*
X153781000Y-92583000D02*
X151641010Y-94722990D01*
X147361301Y-95849500D02*
X146168000Y-95849500D01*
X148487811Y-94722990D02*
X147361301Y-95849500D01*
X151641010Y-94722990D02*
X148487811Y-94722990D01*
X146168000Y-97119500D02*
X147482500Y-97119500D01*
X147482500Y-97119500D02*
X148209000Y-96393000D01*
X148209000Y-96393000D02*
X148209000Y-95567500D01*
X148653500Y-95123000D02*
X153781000Y-95123000D01*
X148209000Y-95567500D02*
X148653500Y-95123000D01*
X155321000Y-100520500D02*
X152945500Y-100520500D01*
X156337000Y-79121000D02*
X156337000Y-78930504D01*
X156337000Y-100219000D02*
X156019500Y-100536500D01*
X156337000Y-79121000D02*
X156337000Y-100219000D01*
X147510500Y-102171500D02*
X146168000Y-102171500D01*
X148145500Y-101536500D02*
X147510500Y-102171500D01*
X151638000Y-101536500D02*
X148145500Y-101536500D01*
X152654000Y-100520500D02*
X151638000Y-101536500D01*
X156337000Y-73660000D02*
X156337000Y-79121000D01*
X137858500Y-73025000D02*
X155702000Y-73025000D01*
X155702000Y-73025000D02*
X156337000Y-73660000D01*
X137477500Y-75247500D02*
X137477500Y-73406000D01*
X137477500Y-73406000D02*
X137858500Y-73025000D01*
X129168000Y-84001500D02*
X129168000Y-88229500D01*
X129794000Y-83375500D02*
X129168000Y-84001500D01*
X143553821Y-83375500D02*
X129794000Y-83375500D01*
X143954500Y-80327500D02*
X143954500Y-82974821D01*
X141732000Y-78105000D02*
X143954500Y-80327500D01*
X143954500Y-82974821D02*
X143553821Y-83375500D01*
X138874500Y-78105000D02*
X141732000Y-78105000D01*
X138684000Y-77914500D02*
X138874500Y-78105000D01*
X138684000Y-76771500D02*
X138684000Y-77914500D01*
X129888002Y-100993000D02*
X130998999Y-99882003D01*
X129168000Y-100993000D02*
X129888002Y-100993000D01*
X133877679Y-84391500D02*
X134239000Y-84391500D01*
X131635500Y-84391500D02*
X134239000Y-84391500D01*
X131000500Y-85026500D02*
X131635500Y-84391500D01*
X131000500Y-89154000D02*
X131000500Y-85026500D01*
X130998999Y-99882003D02*
X131000500Y-89154000D01*
X145940509Y-82613500D02*
X144145000Y-84391500D01*
X145940509Y-75801491D02*
X145940509Y-82613500D01*
X145386518Y-75247500D02*
X145940509Y-75801491D01*
X144145000Y-84391500D02*
X134239000Y-84391500D01*
X139954000Y-75247500D02*
X145386518Y-75247500D01*
X130368000Y-99659500D02*
X130598988Y-99428512D01*
X129168000Y-99659500D02*
X130368000Y-99659500D01*
X131953040Y-83883460D02*
X131782179Y-83883500D01*
X131254540Y-83883460D02*
X131953040Y-83883460D01*
X130598988Y-84539012D02*
X131254540Y-83883460D01*
X130598988Y-99428512D02*
X130598988Y-84539012D01*
X144491350Y-83404350D02*
X144491349Y-79981151D01*
X144015100Y-83880600D02*
X144491350Y-83404350D01*
X131953040Y-83883460D02*
X144015100Y-83880600D01*
X141281698Y-76771500D02*
X141224000Y-76771500D01*
X144491349Y-79981151D02*
X141281698Y-76771500D01*
D21*
X124284500Y-99250500D02*
X124260500Y-99274500D01*
X126365000Y-99250500D02*
X124602000Y-99250500D01*
X121412000Y-88709500D02*
X122428000Y-88709500D01*
X120332500Y-89789000D02*
X121412000Y-88709500D01*
X120396000Y-96964500D02*
X120332500Y-89789000D01*
X156019500Y-102489000D02*
X156019500Y-104769500D01*
X150029000Y-104838500D02*
X150029000Y-105558500D01*
X150029000Y-105558500D02*
X149133500Y-106454000D01*
X123952000Y-88709500D02*
X124587000Y-88074500D01*
X122428000Y-88709500D02*
X123952000Y-88709500D01*
X148660000Y-103469500D02*
X150029000Y-104838500D01*
X146168000Y-103469500D02*
X148660000Y-103469500D01*
X125329000Y-78315500D02*
X124587000Y-79057500D01*
X128971000Y-78315500D02*
X125329000Y-78315500D01*
X124587000Y-88074500D02*
X124587000Y-79057500D01*
X155547000Y-106454000D02*
X155977500Y-106023500D01*
X155540500Y-106447500D02*
X155547000Y-106454000D01*
X128037500Y-106447500D02*
X155540500Y-106447500D01*
X127254000Y-105664000D02*
X128037500Y-106447500D01*
X127254000Y-101727000D02*
X127254000Y-105664000D01*
X155977500Y-106023500D02*
X155977500Y-104838500D01*
X126365000Y-100838000D02*
X127254000Y-101727000D01*
X126365000Y-99250500D02*
X126365000Y-100838000D01*
X125984000Y-106447500D02*
X125920500Y-106384000D01*
X128037500Y-106447500D02*
X125984000Y-106447500D01*
D22*
X119824500Y-86169500D02*
X122428000Y-86169500D01*
X119316500Y-86677500D02*
X119824500Y-86169500D01*
X119316500Y-97726500D02*
X119316500Y-86677500D01*
X131155500Y-102199500D02*
X131191000Y-102235000D01*
X129168000Y-102199500D02*
X131155500Y-102199500D01*
X127028000Y-95849500D02*
X122428000Y-91249500D01*
X129168000Y-95849500D02*
X127028000Y-95849500D01*
X123368000Y-93789500D02*
X122428000Y-93789500D01*
X127968000Y-98389500D02*
X123368000Y-93789500D01*
X129168000Y-98389500D02*
X127968000Y-98389500D01*
D21*
X123260498Y-100774500D02*
X124173000Y-100774500D01*
X122428000Y-96329500D02*
X122428000Y-99942002D01*
X124046000Y-100774500D02*
X122745500Y-100774500D01*
X122428000Y-99942002D02*
X123260498Y-100774500D01*
X133286500Y-89217500D02*
X144018000Y-89217500D01*
X132195991Y-90308009D02*
X133286500Y-89217500D01*
X132195991Y-96404009D02*
X132195991Y-90308009D01*
X148717000Y-85598000D02*
X148717000Y-89217500D01*
X151892000Y-82423000D02*
X148717000Y-85598000D01*
X153781000Y-82423000D02*
X151892000Y-82423000D01*
D22*
X153781000Y-85189502D02*
X153781000Y-84963000D01*
X148201002Y-90769500D02*
X153781000Y-85189502D01*
X146168000Y-90769500D02*
X148201002Y-90769500D01*
X153174500Y-87503000D02*
X153781000Y-87503000D01*
X146888002Y-94579500D02*
X147838750Y-93628752D01*
X147838750Y-93628752D02*
X147838750Y-92838750D01*
X146168000Y-94579500D02*
X146888002Y-94579500D01*
X147838750Y-92838750D02*
X153174500Y-87503000D01*
X146168000Y-98389500D02*
X148427500Y-98389500D01*
X148653500Y-98615500D02*
X150558500Y-98615500D01*
X148427500Y-98389500D02*
X148653500Y-98615500D01*
X150558500Y-98615500D02*
X152336500Y-98615500D01*
X152336500Y-98615500D02*
X152781000Y-99060000D01*
X152781000Y-99060000D02*
X155003500Y-99060000D01*
X155003500Y-99060000D02*
X155511500Y-98552000D01*
X155511500Y-91773500D02*
X153781000Y-90043000D01*
X155511500Y-98552000D02*
X155511500Y-91773500D01*
X150886000Y-78277000D02*
X150886000Y-79365000D01*
X144875250Y-85375750D02*
X150886000Y-79365000D01*
X142652750Y-85375750D02*
X144875250Y-85375750D01*
X142113000Y-85915500D02*
X142652750Y-85375750D01*
X142113000Y-87229500D02*
X142113000Y-85915500D01*
X146168000Y-85214400D02*
X146168000Y-88229500D01*
X152136000Y-79246400D02*
X146168000Y-85214400D01*
X152136000Y-78277000D02*
X152136000Y-79246400D01*
X149636000Y-78277000D02*
X149636000Y-79723220D01*
X144523220Y-84836000D02*
X149636000Y-79723220D01*
X133731000Y-84836000D02*
X144523220Y-84836000D01*
X133223000Y-85344000D02*
X133731000Y-84836000D01*
X133223000Y-87229500D02*
X133223000Y-85344000D01*
X153386000Y-79341500D02*
X147701000Y-85026500D01*
X153386000Y-78277000D02*
X153386000Y-79341500D01*
X147368000Y-89499500D02*
X146168000Y-89499500D01*
X147701000Y-89166500D02*
X147368000Y-89499500D01*
X147701000Y-85026500D02*
X147701000Y-89166500D01*
X133604000Y-76644500D02*
X133604000Y-78248000D01*
X132921500Y-75962000D02*
X133604000Y-76644500D01*
X123936000Y-75962000D02*
X132921500Y-75962000D01*
X123378000Y-76520000D02*
X123936000Y-75962000D01*
X123378000Y-78315500D02*
X123378000Y-76520000D01*
X132762500Y-78248000D02*
X131191000Y-79819500D01*
X133604000Y-78248000D02*
X132762500Y-78248000D01*
X128447998Y-93309500D02*
X129168000Y-93309500D01*
X125984000Y-90845502D02*
X128447998Y-93309500D01*
X125984000Y-82931000D02*
X125984000Y-90845502D01*
X129095500Y-79819500D02*
X125984000Y-82931000D01*
X131191000Y-79819500D02*
X129095500Y-79819500D01*
X128511498Y-94643000D02*
X125349000Y-91503500D01*
X129231500Y-94643000D02*
X128511498Y-94643000D01*
X126746000Y-80311500D02*
X125619000Y-80311500D01*
X125619000Y-80311500D02*
X125349000Y-80581500D01*
X125349000Y-91503500D02*
X125349000Y-80581500D01*
X130411002Y-78315500D02*
X130871000Y-78315500D01*
X129349500Y-79375000D02*
X130411002Y-78315500D01*
X128206500Y-79375000D02*
X129349500Y-79375000D01*
X127270000Y-80311500D02*
X128206500Y-79375000D01*
X126746000Y-80311500D02*
X127270000Y-80311500D01*
X126638010Y-82975490D02*
X127209510Y-82403990D01*
X126644500Y-90144500D02*
X126638010Y-82975490D01*
X128603000Y-92103000D02*
X126644500Y-90144500D01*
X138131510Y-82403990D02*
X138553500Y-81982000D01*
X138553500Y-81982000D02*
X138553500Y-80629500D01*
X127209510Y-82403990D02*
X138131510Y-82403990D01*
X127355520Y-83400980D02*
X127889000Y-82867500D01*
X127343000Y-89573000D02*
X127355520Y-83400980D01*
X128603000Y-90833000D02*
X127343000Y-89573000D01*
X139803500Y-82510000D02*
X139803500Y-80629500D01*
X139446000Y-82867500D02*
X139803500Y-82510000D01*
X127889000Y-82867500D02*
X139446000Y-82867500D01*
X122428000Y-83629500D02*
X122428000Y-81006000D01*
X140906500Y-79248000D02*
X141053500Y-79395000D01*
X141053500Y-79395000D02*
X141053500Y-80645000D01*
X129921000Y-80815500D02*
X131171000Y-80815500D01*
X131171000Y-80815500D02*
X132207000Y-81851500D01*
X132207000Y-81851500D02*
X136144000Y-81851500D01*
X136144000Y-81851500D02*
X136969500Y-81026000D01*
X136969500Y-79692500D02*
X137414000Y-79248000D01*
X136969500Y-81026000D02*
X136969500Y-79692500D01*
X137414000Y-79248000D02*
X140906500Y-79248000D01*
M02*
