EESchema Schematic File Version 5
EELAYER 36 0
EELAYER END
$Descr A4 11693 8268
encoding utf-8
Sheet 1 1
Title "Etiopulse"
Date "2021-12-15"
Rev "21.01 rev A"
Comp "IR LED PCB"
Comment1 "Status: PCB production"
Comment2 "PCB reference: Y10-3391831A"
Comment3 "website: https://gitlab.com/olinews/etiopulse"
Comment4 "Olivier MOLERO"
Comment5 ""
Comment6 ""
Comment7 ""
Comment8 ""
Comment9 ""
$EndDescr
Connection ~ 2100 2050
Connection ~ 2350 3350
Connection ~ 2700 4650
Connection ~ 2700 5450
Connection ~ 3650 2050
Connection ~ 4500 5100
Connection ~ 5400 4700
Connection ~ 5850 5200
Connection ~ 6100 2450
Connection ~ 6100 2750
Connection ~ 6200 2450
Connection ~ 6200 2750
Connection ~ 6900 2450
Connection ~ 6900 5500
Connection ~ 7550 2450
Connection ~ 7550 2750
Connection ~ 7650 2450
Connection ~ 7650 2750
Connection ~ 7900 5200
Connection ~ 8300 4700
Connection ~ 9250 5100
Wire Wire Line
	1950 2300 2100 2300
Wire Wire Line
	1950 2500 2450 2500
Wire Wire Line
	1950 2700 2450 2700
Wire Wire Line
	1950 2800 2350 2800
Wire Wire Line
	2100 2050 2100 1850
Wire Wire Line
	2100 2300 2100 2050
Wire Wire Line
	2300 4950 2300 4650
Wire Wire Line
	2300 5150 2300 5450
Wire Wire Line
	2300 5450 2700 5450
Wire Wire Line
	2350 2800 2350 3350
Wire Wire Line
	2350 3350 2350 3500
Wire Wire Line
	2450 2400 1950 2400
Wire Wire Line
	2700 4650 2300 4650
Wire Wire Line
	2700 4650 2700 4550
Wire Wire Line
	2700 4750 2700 4650
Wire Wire Line
	2700 5350 2700 5450
Wire Wire Line
	2700 5450 2700 5550
Wire Wire Line
	3650 1850 3650 2050
Wire Wire Line
	3650 2050 3650 2600
Wire Wire Line
	3650 2600 1950 2600
Wire Wire Line
	4150 5100 4500 5100
Wire Wire Line
	4500 4700 4500 5100
Wire Wire Line
	4500 5100 4650 5100
Wire Wire Line
	4850 4700 4500 4700
Wire Wire Line
	4900 1850 4900 2000
Wire Wire Line
	4900 2200 4900 2450
Wire Wire Line
	4900 2750 4900 3500
Wire Wire Line
	5150 4700 5400 4700
Wire Wire Line
	5250 5000 5400 5000
Wire Wire Line
	5250 5200 5850 5200
Wire Wire Line
	5400 4700 5650 4700
Wire Wire Line
	5400 5000 5400 4700
Wire Wire Line
	5650 2750 6100 2750
Wire Wire Line
	5650 4300 5650 2750
Wire Wire Line
	5650 4600 5650 4700
Wire Wire Line
	5850 2450 5850 4300
Wire Wire Line
	5850 4600 5850 5200
Wire Wire Line
	5850 5500 6900 5500
Wire Wire Line
	6100 2450 5850 2450
Wire Wire Line
	6100 2750 6200 2750
Wire Wire Line
	6200 1850 6200 1900
Wire Wire Line
	6200 2200 6200 2450
Wire Wire Line
	6200 2450 6100 2450
Wire Wire Line
	6200 2450 6300 2450
Wire Wire Line
	6200 2750 6200 2800
Wire Wire Line
	6200 2750 6300 2750
Wire Wire Line
	6200 3400 6200 3500
Wire Wire Line
	6600 2450 6900 2450
Wire Wire Line
	6600 2750 6600 3100
Wire Wire Line
	6900 2050 6900 2450
Wire Wire Line
	6900 2450 7150 2450
Wire Wire Line
	6900 5500 7900 5500
Wire Wire Line
	6900 5750 6900 5500
Wire Wire Line
	7150 3100 7150 2750
Wire Wire Line
	7450 2750 7550 2750
Wire Wire Line
	7550 1850 7550 1900
Wire Wire Line
	7550 2450 7450 2450
Wire Wire Line
	7550 2450 7550 2200
Wire Wire Line
	7550 2450 7650 2450
Wire Wire Line
	7550 2750 7650 2750
Wire Wire Line
	7550 2800 7550 2750
Wire Wire Line
	7550 3500 7550 3400
Wire Wire Line
	7650 2450 7900 2450
Wire Wire Line
	7650 2750 8100 2750
Wire Wire Line
	7900 2450 7900 4300
Wire Wire Line
	7900 4600 7900 5200
Wire Wire Line
	7900 5200 8500 5200
Wire Wire Line
	8100 2750 8100 4300
Wire Wire Line
	8100 4700 8100 4600
Wire Wire Line
	8100 4700 8300 4700
Wire Wire Line
	8300 4700 8300 5000
Wire Wire Line
	8300 5000 8500 5000
Wire Wire Line
	8600 4700 8300 4700
Wire Wire Line
	8900 4700 9250 4700
Wire Wire Line
	9250 4700 9250 5100
Wire Wire Line
	9250 5100 9100 5100
Wire Wire Line
	9250 5100 9550 5100
Wire Wire Line
	9300 1850 9300 1900
Wire Wire Line
	9300 2200 9300 2450
Wire Wire Line
	9300 2750 9300 3500
Wire Notes Line
	1400 950  1400 3750
Wire Notes Line
	1400 950  4200 950 
Wire Notes Line
	1400 4000 1400 6250
Wire Notes Line
	1400 4000 10300 4000
Wire Notes Line
	4200 3750 1400 3750
Wire Notes Line
	4200 3750 4200 950 
Wire Notes Line
	4300 950  5500 950 
Wire Notes Line
	4300 3750 4300 950 
Wire Notes Line
	5500 950  5500 3750
Wire Notes Line
	5500 3750 4300 3750
Wire Notes Line
	5600 950  5600 3750
Wire Notes Line
	5600 950  8250 950 
Wire Notes Line
	8250 3750 5600 3750
Wire Notes Line
	8250 3750 8250 950 
Wire Notes Line
	8400 950  8400 3750
Wire Notes Line
	8400 3750 10300 3750
Wire Notes Line
	10300 950  8400 950 
Wire Notes Line
	10300 3750 10300 950 
Wire Notes Line
	10300 4000 10300 6250
Wire Notes Line
	10300 6250 1400 6250
$Bitmap
Pos 10850 6850
Scale 1.000000
Data
89 50 4E 47 0D 0A 1A 0A 00 00 00 0D 49 48 44 52 00 00 00 A3 00 00 00 74 08 06 00 00 00 E9 57 82 
17 00 00 00 04 73 42 49 54 08 08 08 08 7C 08 64 88 00 00 00 09 70 48 59 73 00 00 0E 74 00 00 0E 
74 01 6B 24 B3 D6 00 00 1E 8E 49 44 41 54 78 9C ED 9D 79 7C 1C D5 95 EF 7F E7 56 B7 24 2F C2 60 
08 31 10 16 43 48 00 E1 45 55 D5 92 85 C3 44 80 31 21 10 B2 D9 6F 58 02 59 18 66 26 21 3B 49 26 
64 F5 BC EC 84 30 61 92 97 61 86 B0 04 86 49 C0 24 F0 42 86 D5 80 09 18 45 EE BE 25 D9 8E 21 04 
C6 61 5F 63 BC C8 D8 92 BA EB 9E F9 A3 AA BB 6F DF AE DE E4 96 DC 24 F5 FD 7C FA F3 E9 3A 75 EE 
52 D2 E9 5B 77 39 F7 1E 42 4C 8C 06 2F 59 B2 1E C0 3C 4D 34 48 AB 56 2D 9A 8A B2 C5 54 14 12 F3 
FA 80 DF F5 AE E9 00 8E 2E 11 12 0D 4E 55 F9 B1 31 C6 14 D9 B9 D3 01 90 28 91 31 C7 C6 18 B3 07 
10 A2 27 42 FA BB 29 2B 7E AA 0A 8A 79 1D C0 9C 32 24 AF D0 AA 55 9B A6 AA F8 D8 18 63 74 4A 8D 
91 79 CA 5A 45 20 36 C6 98 10 3E E5 94 D9 00 E6 96 08 A7 70 F0 02 C4 C6 18 93 27 9B ED 05 40 86 
74 4A 8D 31 91 4A A5 96 4C 65 81 31 53 4F 2E 97 5B 37 34 34 F4 4A 55 25 CB 4A 81 59 97 28 00 E9 
28 D5 54 2A 35 07 C0 B1 A6 5C 29 F5 27 29 E5 FF 4C B4 9E 09 A5 D4 3D 13 4D 1C F3 FA C0 B2 AC 77 
03 F8 75 55 25 73 F0 42 F4 28 DD 73 CF B6 28 55 DF F7 4F 22 A2 FF 2C CF 82 BF 05 E0 2B 13 AD 67 
FC 9A 8E C9 63 8E A4 A7 74 F0 02 C4 C6 18 03 80 4F 3C F1 50 00 6F 2C 15 56 9D EC 36 FB 96 4D 21 
36 C6 18 80 C8 6C 15 A7 74 E5 25 4F 6C 8C 31 80 10 A6 31 8E 60 F6 EC 8D 95 D5 C5 A4 B4 8C 89 4A 
37 98 79 D5 64 14 18 33 F5 28 A5 AA 8F A4 99 CD 65 C0 0C AD 5C E9 4F 5E 8D A2 A9 68 8C 9E E7 9D 
3C 95 15 89 D9 33 F0 8A 15 02 0F 3D 64 97 08 89 6A 0D 5E E2 3E 63 CC 24 F0 E0 83 47 01 D8 AB 44 
B6 07 FA 8B 40 6C 8C 31 51 9E 3A 96 B5 B6 5A 12 66 8E 5B C6 98 49 C0 9C EC 66 7E 92 EE BA EB 85 
3D 51 95 D8 18 63 CC 95 97 9A AF E8 B8 65 8C 69 3A BC 7C 79 1B 80 F9 86 78 8F F4 17 81 D8 18 FF 
BA D9 BC 79 21 80 F6 12 59 7D 3E 8C 71 CB 18 D3 64 2C CB 9C EC CE 62 E7 CE E1 5A C9 26 6B D2 3B 
36 C6 BF 6E CC FE E2 10 0D 0C EC DA 43 75 89 8D F1 AF 9A F2 95 97 7A 3D 75 A6 76 39 B0 19 38 8E 
93 24 A2 C5 CC EC 12 D1 41 CC FC 46 00 E3 44 F4 1C 33 3F 0B E0 7E 29 E5 1F 9A 5C E6 74 22 EA 51 
4A 1D 47 44 73 00 CC 06 90 24 A2 AD CC FC 22 33 3F C2 CC 1B 86 86 86 1E 05 C0 35 B2 2B D0 D7 D7 
37 6D 7C 7C BC 4D 97 49 29 B7 37 92 07 00 F4 F6 F6 EE 95 CB E5 0A FF CC D1 D1 51 7F E3 C6 8D 3B 
F2 D7 7C DA 69 FB 94 24 C8 66 C7 E9 EE BB 5F 6B A4 8C 7A E0 C5 8B 3B 01 BC B5 44 A8 54 D5 F9 C5 
C9 66 52 8C B1 AB AB AB AD A3 A3 E3 13 00 2E 62 E6 03 00 80 35 2F 62 FD BB E3 38 83 44 F4 D5 4C 
26 B3 5B 4E BE AE EB BE 15 C0 67 99 F9 5C 66 9E 46 54 FA E3 CD 97 49 44 20 22 38 8E F3 0A 80 07 
00 DC 92 48 24 7E 33 38 38 B8 BD 5A FE 63 63 63 57 13 D1 99 BA 6C C1 82 05 6F 5A B7 6E DD 73 8D 
D4 33 97 CB 3D 0D 60 56 FE BA A3 A3 63 03 F4 11 ED D8 D8 23 00 E6 68 49 7E 0D E0 DD 8D 94 51 17 
1D 1D 2E CC 37 63 9D 1B B0 5E 37 53 3B A9 54 EA E0 8E 8E 8E 87 01 5C 0A E0 80 3A 92 F4 32 F3 DD 
AE EB FE B8 BF BF 7F 22 3F 0E 72 1C E7 73 CC BC 9E 99 FF 1E C0 B4 3A D3 BD 01 C0 32 00 37 E4 72 
B9 3D 32 C9 1B 09 F3 1F 0D C9 21 93 54 92 39 78 D9 8C FB EE 9B B2 6D A9 51 34 D5 18 53 A9 D4 1C 
A5 D4 FD 00 9C 46 D3 32 F3 85 DB B7 6F BF 1A 8D F5 47 C8 75 DD EB 00 7C 1F 40 5B 2D E5 2A 74 EC 
46 DA 66 33 35 C6 58 EE 36 36 40 75 76 39 5E 0F 2D 23 29 A5 6E 00 70 84 21 1F 0F F7 4B BC 57 29 
B5 50 08 B1 98 88 CE 47 44 67 99 88 CE 75 5D F7 C2 7A 0B 74 5D F7 7B CC FC 81 88 5B 8F 03 F8 06 
33 9F 11 F6 57 E7 29 A5 DE 4E 44 67 03 F8 57 00 1B EA 7F AC 29 86 C8 34 C6 D9 61 FF AE B9 94 0F 
5E F6 D8 64 77 9E A6 F5 19 5D D7 7D 1F 33 9F 68 88 5F 05 F0 EE 4C 26 F3 90 21 7F 18 C0 D5 8E E3 
7C 0A C0 65 D0 7E 14 CC FC CD 79 F3 E6 DD B0 61 C3 86 2D D5 CA B3 6D 7B 3E 33 7F D6 10 EF 64 E6 
4F 7B 9E F7 53 54 FE 95 FF 1C 00 52 A9 D4 42 A5 D4 3F 00 F8 30 80 64 D5 87 9B 5A 4C 63 04 3A 3A 
0E 06 F0 48 B3 0A E0 A5 4B F7 87 52 66 8B DB C8 9E 97 96 6E 19 89 99 BF 6A C8 58 08 F1 B7 52 4A 
D3 10 0B 48 29 2F 27 A2 7F 33 C4 B3 92 C9 E4 27 6B 16 48 B4 02 80 A5 89 7C 00 A7 7B 9E 77 25 EA 
78 DD A4 D3 E9 61 29 E5 47 7D DF 3F 0A C0 8D B5 F4 A7 0C 21 1E 8B 90 36 F7 55 ED FB 66 AB C8 C8 
E5 32 4D 2D 63 02 34 C5 18 1D C7 39 19 C0 02 43 7C 73 3A 9D AE E9 2D 6E 59 D6 97 00 94 B4 82 44 
F4 29 C7 71 2A B6 56 8E E3 4C 07 F0 0E 5D C6 CC 3F 95 52 DE 5F 7F AD 03 86 87 87 9F 94 52 9E DD 
68 BA 49 63 D6 AC 4D 00 72 86 F4 D0 26 97 62 F6 17 1F A5 D5 AB B7 D6 9B B8 A5 57 60 98 F9 5D 11 
B2 AB EA 49 1B 4E A9 DC 6C 88 F7 01 F0 B6 4A 69 94 52 7D 28 1F 35 DF 50 4F 79 AD 0E AD 5C 39 0E 
E0 C9 52 21 1D DC DC 42 68 A2 93 DD 93 4A 53 8C 91 88 4E 35 44 5B 8F 38 E2 88 BA F7 D0 10 D1 CA 
08 F1 69 95 F4 2D CB 3A 28 22 8F 27 EA 2D EF 75 C0 A4 8D A8 39 E8 EF B9 86 B8 A1 C1 CB 64 8D A6 
77 7B 00 D3 D3 D3 33 D7 F7 7D 73 04 3D B4 B2 81 0D 3D B9 5C 2E 6D 59 16 A3 B4 63 5C 6D 0F CE BE 
8D D4 F1 75 C8 63 00 DE 59 B8 62 8E 7C 4D F3 D2 A5 33 C0 FC F1 12 A1 52 59 BA F7 DE CB 2A E6 BC 
74 E9 61 50 6A BF 12 99 65 ED F1 91 34 D0 84 96 51 29 75 74 84 D8 6B 24 8F E1 E1 E1 AD 00 CC 33 
5A DE BA 7C F9 72 2B 4A 5F 29 55 B6 3C A6 94 3A A6 91 32 5B 9C C7 8D EB E8 96 91 D9 05 F3 77 4B 
3E 44 3F E0 A5 4B 2B BF D6 7D BF D7 90 BC 86 B1 B1 8A DB 52 2B D0 9A 7D 46 A5 D4 5B 22 C4 13 39 
FC C7 9C FD 6F 7F FC F1 C7 23 FF A8 42 88 67 23 64 E7 4F A0 CC D6 C4 1C 51 13 1D C4 51 3F 4C A5 
4C C3 0A 28 37 38 3D 6F 73 F0 B2 96 56 AF 36 07 4C B5 68 4D 63 24 A2 23 23 C4 13 59 5E 2B 4B 63 
59 56 94 A1 83 99 D7 A0 7C C4 79 96 6D DB 9F C7 24 FD A1 A6 94 F1 71 B3 CF 98 C4 2B AF 94 2F AD 
96 0F 44 AA CB 81 A8 D3 69 5B E2 15 0D 34 67 00 53 36 98 60 E6 17 27 90 4F 99 31 12 D1 9B A2 14 
A5 94 DB 00 FC 2A 42 FF 12 C7 71 06 5C D7 3D B3 B7 B7 77 AF 88 A4 AF 0F 56 AF 7E 0E C0 8E 12 99 
10 51 AF EA 68 A3 63 8E 6C 19 C3 D6 D5 36 74 1B 36 C6 96 1D C0 30 F3 8C 08 0F 99 AA 1E 30 15 28 
4B C3 CC 33 AA E8 7F 1D C1 88 DB D4 E9 65 E6 9F E7 72 B9 31 D7 75 EF 67 E6 3B 11 4C 5D 78 52 CA 
EC 04 EA 55 91 44 22 71 A3 E3 38 E3 0D 26 AB F6 4C 00 00 02 98 83 7E 63 77 41 68 59 87 22 58 B9 
02 00 70 7F FF 1C 00 7A 37 66 3D F2 DE 3F 44 0E F7 F7 27 CA 5E BF 5B B6 1C 53 56 7E 22 D1 32 2D 
63 33 96 03 A7 9B 02 21 C4 D8 04 F2 89 4A 53 F1 1F 27 A5 FC 83 EB BA 1F 64 E6 FF 42 B4 93 44 3B 
33 BF 03 C5 C9 F1 9D 8E E3 AC 26 A2 3B C6 C7 C7 6F 5A BF 7E FD CB 13 A8 A3 C9 E2 26 E4 51 89 3F 
42 37 46 73 10 93 48 94 B6 7E 44 DF 07 F3 F5 E1 D5 0C B4 B7 77 01 58 57 A2 C3 DC 83 D2 86 E3 A9 
89 6C 4B 15 42 10 73 43 6E 9C F5 E5 BB BB 19 10 51 99 C1 24 12 89 86 8D 91 99 1B 32 46 00 C8 64 
32 BF 64 E6 25 00 9E AA A3 88 E9 00 DE C9 CC 3F 4A 26 93 4F BB AE 7B 7D 2A 95 3A BC D1 7A 4E 19 
A6 C3 84 52 A5 83 B9 52 47 87 E7 91 48 AC 84 FE 83 8E 1A C4 94 0F 5E 5A 62 B2 3B 4F 33 FA 8C 65 
AD 52 2E 97 9B C8 A1 41 51 AF BB 9A AE 5D 9E E7 3D D8 D9 D9 79 14 80 CF C3 5C B9 A8 4C 3B 33 7F 
40 29 F5 7B C7 71 2E 6A A0 8E 53 49 F5 E9 1D 22 DD D8 D6 D0 1D 77 8C 01 18 D2 EE 97 F7 27 9B E4 
A9 D3 B2 7D 46 44 BC 5E 85 10 0D E7 2B 84 68 8F 68 FA 77 D6 93 76 F5 EA D5 A3 08 9C 79 2F EB EE 
EE 3E 41 08 F1 4E 00 4B 01 74 A1 FA E8 7A 1A 80 4B 5D D7 9D 9B C9 64 3E 5E 45 2F 12 22 7A 0F 80 
3F 37 92 26 EC C3 CE AC A9 E8 FB 8F 41 68 6D 05 51 61 E2 3B 5C 45 D1 7D 46 07 C2 CC D7 80 68 51 
F8 BD A4 65 E4 FE FE 0E 98 E7 70 2B D5 32 FD 45 A0 39 C6 58 36 01 ED FB 7E 7B 94 62 35 98 B9 2C 
0D 11 35 BA F7 43 0D 0D 0D DD 0B E0 5E 00 E8 E9 E9 D9 37 97 CB 1D 27 84 38 3E 74 6F B3 11 61 9C 
CC 7C A1 6D DB EB 3D CF FB 8F 46 0A CB 66 B3 99 46 B7 1D 38 8E 53 DF 5B A3 DC 7B A7 D8 32 2E 59 
72 14 80 BD 0B D7 4A AD 09 D3 AC 01 73 BE A5 3F 86 4F 3D 75 2F BA E3 8E 60 60 68 59 DD 28 75 95 
CB 62 D7 AE 21 4C 8C D6 9C 67 44 44 EB 65 59 56 53 8C 31 6A A5 A5 11 D6 AE 5D BB D9 F3 BC DB 32 
99 CC 17 A4 94 AE 10 E2 CD 08 FC 27 47 4D 5D 22 FA 6E 57 57 57 ED 16 6B 8A A0 55 AB B6 01 D0 07 
59 7B F3 A9 A7 06 D3 55 A5 AF DB 5D D8 77 DF 60 AF 33 D1 1A 4D 2E 30 3E 5E 6C 3D CB 0F 78 1A DE 
93 DB 52 A3 68 86 31 EE 30 05 4A A9 7D A2 14 AB 56 44 88 BD 23 C4 4D DD 15 97 4E A7 37 49 29 2F 
52 4A 2D 42 F9 BC E6 3E 1D 1D 1D 51 5E E3 7B 92 D2 41 8C EF 07 AD A3 DE 1F 64 4E 87 9E 3E A0 BB 
EF 7E 19 FA EA 97 DE AF 2C 9F EC DE 9D C1 4B CB B6 8C 4F 47 C8 EA D9 88 55 02 33 1F 68 CA 84 10 
4F 4E A4 42 B5 18 1A 1A 5A 47 44 1F 8C A8 43 6B C5 C4 21 2A 7D 55 33 E7 5F D5 45 63 14 62 0D 4A 
59 A3 E9 EB AD A1 79 DA 58 4B F5 17 81 26 18 23 33 9B A3 3E 60 02 C6 18 95 26 9B CD 46 E5 DD 14 
C2 AD B1 25 0E 02 44 64 57 50 DF 53 94 3E 3F F3 A1 E1 40 A4 B8 B5 55 A9 87 0D 9D E2 75 38 98 E1 
25 4B 66 01 28 5D B6 DD 8D C9 EE 96 DD 90 25 84 28 DB B3 C1 CC 51 EB D5 B5 30 D7 A1 5F 5B B7 6E 
DD F3 13 AB 55 DD 0C 18 D7 FB 45 6A ED 29 94 32 1D 26 0E 0E 07 22 F9 E9 34 86 EF 97 BE 6E 2D 4B 
6F 29 0F E0 FE FE 37 85 2D A4 6E 40 9B 71 D7 5D 13 8E 64 35 59 EC B6 31 FA BE 5F E6 7E 24 84 68 
68 AB EA FC F9 F3 F7 07 60 AE 43 FF 1E 0D 9E D6 D0 28 CC FC AA 21 AA 77 CF F5 54 51 FA 43 67 3E 
C4 18 88 3C 46 AB 57 97 4E 2D DD 7D F7 46 04 1B E1 02 12 89 DE A8 C9 EE 7A B7 A5 46 D1 B2 DB 0E 
86 86 86 9E 47 60 38 05 98 79 41 5F 5F 5F DD FF D8 B6 B6 B6 3E 53 46 44 77 EE 6E DD 6A 11 31 68 
6A 68 CE 70 D2 99 3D FB 09 04 1B CD F2 1C 6A F4 03 1F 36 52 80 00 36 0E FC EC 8D 38 9D 76 B7 FA 
8B 2D FB 9A 06 00 66 BE DD 10 4D 1F 1B 1B 2B DB 17 53 25 FD DF 46 88 CD 3C 9B 0E 33 9B EE F7 2F 
4D 76 99 8D 10 8E 92 F5 A5 CE 43 A0 0F 5E F4 FE A1 8E 2E 0F 26 BF 5B 72 CF 8B 49 53 8C D1 B2 AC 
FF 6F CA 88 E8 1F EB 49 EB 38 CE 01 28 3F 4B E6 99 4C 26 53 71 EB E4 F2 E5 CB 2D DB B6 4F 6F AC 
96 A5 B8 AE DB 83 52 47 04 30 F3 83 BB 93 E7 A4 50 3A A2 3E 08 FA 21 09 44 95 8C 71 8D A6 B3 08 
80 3E 53 A1 E0 FB 91 D1 52 1B A9 D5 6E A6 8F A4 29 C6 98 4E A7 1F 26 A2 DF 1A E2 13 5C D7 3D AF 
46 52 62 E6 1F C1 F0 FC 21 A2 4B 10 84 98 8D 64 D3 A6 4D 82 88 6E B3 6D FB 9E EE EE 6E 73 8B 6C 
4D 1C C7 D9 8F 99 AF 41 F9 1F F5 BF 1B CD 6B D2 51 4A EF 37 5A 28 D6 79 0B 56 AD 8A 3E C1 2D 88 
56 90 77 97 33 7D 07 FE D0 C8 B6 D4 A9 A4 69 C7 9B 28 A5 FE D9 94 31 F3 95 AE EB 9E 1B A5 FF E6 
37 BF B9 DD 75 DD AB 88 E8 FD C6 AD E7 66 CE 9C F9 D3 7A CA 24 A2 25 42 88 21 D7 75 57 B9 AE FB 
FE AE AE AE 9A E7 ED D8 B6 7D 0A 82 51 74 C9 9E 19 66 4E 7B 9E 77 57 3D E5 4E 31 E5 27 4C 04 AC 
A9 34 08 09 8F D0 5B 17 75 0F CD F1 EC 6E 59 47 09 00 80 E7 79 F7 B9 AE 7B A3 D1 FF 6B 63 E6 EB 
1C C7 F9 34 82 BD D1 4F 31 73 BB 10 E2 68 66 3E 2F 3C AF 51 87 01 7C 3C 74 7C A8 17 62 E6 93 00 
9C D4 D1 D1 B1 D3 75 DD 01 0E FA 4C 2F 30 F3 4B 42 08 01 60 5F 66 EE 42 B0 E3 F0 A8 88 3C C6 00 
7C 12 93 3C 7A 9F 10 E5 67 EF 04 54 EA 2F 16 D3 3D 8C F2 3E 71 4B 4E 76 E7 69 EA F9 8C ED ED ED 
17 8C 8E 8E CE 45 79 87 D9 0E 3F 20 22 44 78 E7 E4 F9 9A 94 F2 D6 DD A8 C2 F4 BC 61 D6 51 56 9E 
1C 33 9F E5 79 5E 4B 76 EA 51 A9 65 14 A2 BA 31 06 FD C6 F2 63 62 12 89 DD 7E 4E 66 26 D3 BB BF 
19 34 F5 48 BC 35 6B D6 8C 24 12 89 93 99 F9 97 0D 26 1D 05 70 A1 94 F2 9B F5 28 4B 29 7D 00 3F 
03 30 D2 68 1D 0D 36 12 D1 62 CF F3 6E D9 CD 7C 26 8F 55 AB 9E 41 B9 33 4A 16 1D 1D D5 07 21 44 
51 67 1C 4D 64 5B EA 94 D1 F4 C3 42 07 07 07 B7 7B 9E B7 8C 99 CF 00 F0 10 AA BF FA 76 01 B8 96 
99 E7 49 29 7F D2 40 31 4A 4A F9 A1 6C 36 7B 00 11 9D 45 44 D7 20 7A 8D 3C 8A 2C 33 AF 62 E6 33 
47 47 47 ED 4C 26 53 D7 D1 C1 42 88 17 11 38 21 14 3E 1D 1D 1D 8D 6E F1 04 82 2D B9 7A 3E 55 EB 
1D CE 1B 3E 10 A6 CB 7F EE A2 DB 6E AB EA EB 49 F7 DC F3 3C 82 BE B1 9E EE F6 09 6C 4B 2D 63 B2 
26 BD C9 71 9C 48 63 91 52 36 A5 40 C7 71 0E 60 66 07 C0 81 42 88 03 99 79 17 11 3D 0F E0 99 64 
32 39 38 D0 44 37 A6 F9 F3 E7 EF 9F 4C 26 BB 10 4C 7F EC 8B E0 B8 E2 1C 80 6D 44 B4 85 99 37 76 
76 76 AE 6B B0 4F 1A 63 E0 BA EE 17 98 F9 7B A6 9C 99 BF E5 79 DE 57 26 9A EF A4 1E 30 0F 00 52 
CA 17 00 FC 66 B2 CB 01 80 70 93 D5 CB 00 1A 3E 8D 2C A6 7E 5A 7A 05 26 26 A6 19 C4 C6 18 33 11 
E2 96 31 E6 2F 9B D8 18 63 26 42 DC 32 C6 B4 06 F1 00 26 E6 2F 9E D8 18 63 1A 66 B2 26 BD 2B CE 
33 3A 8E B3 7C 32 0A 8C 79 FD A3 94 3A 76 32 D6 A6 AB 4D 7A DF D4 F4 D2 62 FE 22 98 0C 43 04 E2 
D7 74 4C 0B 11 1B 63 4C CB 10 1B 63 4C CB 10 1B 63 4C CB 90 00 10 15 9D 2A 26 A6 61 84 10 BF AF 
AD 15 13 13 13 13 13 13 13 13 13 13 13 13 13 13 13 13 13 13 13 13 13 13 13 13 13 13 13 13 13 13 
13 13 33 39 FB 5F F7 10 64 DB 76 AF 10 E2 2D CC BC 1F 33 BF 2C 84 18 CE 64 32 13 F6 24 E9 E9 E9 
99 9B CB E5 7A 84 10 07 02 D8 AE 94 FA 13 11 3D 28 A5 CC D6 4C 1C C1 E2 C5 8B 3B 77 ED DA F5 76 
22 3A 04 C1 91 C8 CF B4 B5 B5 FD 76 60 60 C0 0C 01 52 2F C2 71 9C E3 50 3C E8 EA 45 00 9E 94 32 
FA 78 E5 A9 47 B8 AE 7B 0C 33 3B CC BC 0F 00 08 21 5E 05 E0 65 32 99 47 60 1C 95 5D D1 18 1D C7 
F9 BF 00 BE 3A 81 0A 8C 4A 29 4B C2 6E B8 AE FB 4B 66 7E 5F 95 34 23 00 9E 26 A2 B5 4A A9 1B 3D 
CF BB C7 AC 68 35 5C D7 7D 3F 33 5F 02 20 2A 98 F9 30 11 7D 3C 93 C9 98 61 CD 2A B2 70 E1 C2 23 
2D CB BA 02 C0 09 28 FF 1B BD 0C E0 DB 52 CA 7F 45 9D 27 DD F6 F5 F5 4D 1B 1F 1F FF 1E 80 F3 61 
9C 5F 8E E0 D4 DC 5F F8 BE FF E9 E1 E1 E1 BA CF DA 76 5D F7 3C 66 FE 26 80 83 23 6E 0F 02 F8 98 
94 D2 AB 27 AF FE FE FE 8E 1D 3B 76 38 1C 44 46 E8 03 B0 08 A5 71 79 3E 27 A5 FC 41 BD 75 03 00 
DB B6 3F 4C 44 17 C3 8C CC 55 E4 71 66 FE B6 E7 79 D7 E6 05 AD E2 5C DB 09 A0 8B 99 3F 4C 44 77 
3A 8E B3 66 E1 C2 85 75 45 D9 B2 6D FB EB CC 7C 33 A2 0D 11 00 16 32 F3 6A DB B6 CF A9 27 3F C7 
71 DE 66 59 96 04 70 22 A2 7F AC FB 03 F8 A1 E3 38 37 54 B8 5F 42 6F 6F EF 5E E3 E3 E3 03 00 3E 
81 72 43 04 80 76 00 1F B4 2C 4B 86 91 1F 6A 62 DB F6 65 CC FC 33 44 1B 22 00 F4 02 78 D8 75 DD 
33 6A E5 E5 38 CE D9 23 23 23 DB 99 F9 21 00 3F 00 B0 0C E5 01 A2 1A 41 D8 B6 7D 1D 11 5D 8D CA 
86 08 00 47 12 D1 35 B6 6D 5F 87 D0 0E EB 35 C6 5D 00 64 3D 1F 22 AA 15 C3 F8 A5 F0 B0 CE C2 07 
41 50 23 3D F8 CE 22 CB B2 1E E8 E9 E9 99 5B 2D 23 C7 71 DE 43 44 5F D7 44 AB C3 80 E4 0E 80 73 
00 6C 08 E5 09 22 FA A9 E3 38 55 63 03 A6 52 A9 39 08 9C 8D 3B 43 D1 B3 00 3E 2A 84 E8 21 A2 A5 
CC FC 0B 4D FD 2C DB B6 2F AE F1 AC C8 E5 72 3F 03 90 8F C8 90 05 70 29 33 FF 8D 52 EA 38 00 5F 
47 31 2A ED E1 44 F4 CB FE FE FE AA C7 14 DA B6 FD 21 22 FA 4C FE 3A 0C DE 74 7A 18 D3 E6 43 00 
F2 A1 3A DA 99 F9 3F 5D D7 7D 6B 8D 2A EE 8D D2 38 D4 BB 85 6D DB 5F 24 22 3D A8 C0 7D 44 B4 4C 
08 71 AC 10 E2 58 22 5A 46 44 F7 6A F5 3F D7 71 9C 7F 02 EA 3F 9F 71 93 94 B2 FC B0 F2 89 F1 80 
E7 79 65 41 88 BA BB BB 0F 14 42 5C 82 C0 88 00 E0 00 DF F7 7F 04 20 32 DE 8B E3 38 49 04 B1 A3 
F3 AD D3 AD 87 1F 7E F8 B2 95 2B 57 E6 8D DA 5B BC 78 F1 6D A3 A3 A3 F7 23 30 CE 0E 00 DF 47 78 
DE 77 14 BE EF 7F 99 88 E6 84 97 CF 0B 21 8E 4B A7 D3 CF 68 2A F7 D8 B6 FD 34 11 7D 01 00 88 E8 
2B BD BD BD 57 0D 0E 0E 46 06 33 EA EE EE 3E 09 C0 7B F2 D7 44 74 76 26 93 B9 59 53 19 B0 6D FB 
7E 22 BA 0F 40 82 99 FB 76 EC D8 71 36 80 EB 2A 3C F3 74 00 85 43 3A 99 F9 7A 29 E5 07 51 EC 2E 
C8 BE BE BE DB C6 C7 C7 1F 02 70 34 82 1F D5 B7 01 98 11 25 4C B2 00 3C 22 1A 50 4A 0D 24 93 C9 
87 73 B9 DC 2A 00 B5 0C B9 84 B0 3B F2 45 4D 74 AB 94 F2 FD 28 ED 72 6D 04 70 8B 6D DB 37 69 91 
2E 2E EE EB EB FB 61 AB BC A6 31 34 34 F4 BC 94 F2 5C 00 FA F9 DA A7 A5 52 A9 C8 D7 6F 18 55 21 
DF 72 EE 04 F0 31 CD 10 01 04 67 8C 0B 21 3E AA 89 4E 4C A5 52 66 1C 3D 00 41 6C 18 22 FA BB FC 
35 11 5D 6C 18 22 00 60 FB F6 ED 5F 43 70 24 31 00 4C CB E5 72 9F AA F4 4C 96 65 E9 2D E7 AD 86 
21 02 00 3C CF 7B 90 88 FE 5D 7B AE 2F 9A 3A 5A 9D 3E 82 A0 9B 00 00 5B B2 D9 EC A7 60 F4 5B 07 
06 06 5E 55 4A 7D 42 CB EF BD 8E E3 44 45 78 00 00 B4 B5 B5 FD A2 B3 B3 73 2F 29 E5 A2 4C 26 F3 
19 CF F3 6E 1A 1C 1C 7C B6 92 7E 35 C6 C7 C7 8F 47 F1 AD 02 00 5F 43 74 DF 5F 09 21 56 68 D7 9D 
B9 5C 6E 71 CB 18 63 08 0B 21 BE 53 22 60 3E 21 4A 51 08 F1 5E ED F2 D6 F0 84 DC 32 D2 E9 74 1A 
41 17 02 00 A0 94 8A 1C 48 11 D1 A9 08 5A 4F 00 D8 B2 75 EB D6 1B A3 F4 9E 78 E2 89 31 00 D7 68 
A2 F7 46 E9 CD 9B 37 6F 1F 66 7E BB F6 1C 57 44 E9 85 E8 F7 8E AE 64 3C CC AC 97 F5 8B 0D 1B 36 
6C 89 D2 1B 1A 1A BA 17 C5 F0 C0 04 AD 75 36 19 18 18 78 B5 59 C7 4A 13 91 DE 87 CD 76 76 76 3E 
5A 49 77 E6 CC 99 7F 00 30 9E BF 66 E6 43 5A CD 18 A1 94 1A 86 F6 6B 67 E6 83 4C 9D FE FE FE 44 
18 62 23 AF 53 2B CE A0 1E F9 EA 1D 51 0A CC 7C 8A 76 79 6F 68 74 95 D0 CB 3B 2A AA 6F DB D6 D6 
B6 04 C5 6E D0 68 F8 2A 8E 24 9C 7E 2A 1C 34 CF CC 65 75 9C 3F 7F FE 0C 00 6F D3 74 6A 3D 73 E1 
7E 54 7E 93 81 52 4A 6F 05 77 AE AE 72 98 7D 78 AF 70 48 3E 33 FB 2D 67 8C 61 58 0D FD A1 CA FA 
B5 5B B7 6E 9D 8B E0 F0 78 00 00 11 49 53 47 87 99 F5 38 84 5D 61 7F D3 64 A1 5E 8D 1A D5 DC 80 
20 5C 08 00 20 97 CB 2D 34 15 98 59 0F 23 B7 BE D6 DC 24 33 17 42 69 10 51 59 7E 96 65 1D 0D 2D 
F4 5A 23 CF 1C 95 DF 24 B1 5E FB 3E 2B 0C DD 1C 49 78 4F 8F 6A BB A1 E5 8C D1 B6 ED C3 11 4C 08 
03 00 88 E8 29 53 27 91 48 E8 53 06 BC 6D DB B6 3F 55 CB 93 99 F5 40 DF 49 CB B2 CC 96 4C 40 0B 
10 C9 CC 9B 50 85 D0 B0 0A 2D 19 11 99 81 DB 4D 59 3D 81 C6 0B 3A 51 F9 59 96 A5 3F F3 AE 4A DD 
92 3C C6 33 CF EA ED ED 35 A3 91 35 1D CF F3 3C 68 61 E2 12 89 C4 D9 95 74 8D 7B 43 52 CA A1 96 
33 46 21 C4 87 B5 CB 1C 33 DF 63 EA 30 F3 A1 DA E5 E6 1A AF 54 30 F3 F3 FA B5 EF FB 87 E9 D7 DD 
DD DD 73 50 EC 2F 22 0C 0D 52 0B 5D E7 D0 88 FB BA AC 66 7E 7A 99 CC 7C 98 79 DF 78 E6 46 EB 87 
5C 2E 57 96 E7 24 C0 42 88 0B 00 BC 06 00 44 F4 1D C7 71 FE 4E 9F AE EA EF EF 4F D8 B6 7D 01 11 
E5 C7 06 3B 98 F9 02 00 5C EF D4 4E 57 A5 78 31 06 5B A4 94 B3 1B AA 7E C8 F2 E5 CB AD 4D 9B 36 
5D C0 CC 5F D0 C4 57 4A 29 CB 82 F6 30 F3 4C ED 24 AC 6D F9 2F 0B 16 2C 38 C8 B2 AC 9B 88 C8 25 
A2 DF 30 F3 B9 52 CA 9D C3 C3 C3 DB C2 FA 53 3E BD 91 DF 0C A3 88 7C 9E E4 38 CE 8F 11 AC 9C 3C 
A1 94 3A 67 68 68 68 9D A1 03 22 EA 44 39 7A 19 DB F3 5F 5C D7 5D C6 CC 3F 41 30 95 F3 4F 9E E7 
5D 19 DE DA 5A 21 6D D5 67 4E A5 52 87 2B A5 6E 02 30 8F 88 6E 62 E6 8F 48 29 B3 CC BC 4D 4F AF 
94 2A CB 73 32 48 A7 D3 69 D7 75 4F 64 E6 6B 11 4C 2F 5D 39 32 32 F2 23 C7 71 FE 08 80 46 46 46 
8E 24 A2 FC 0F FF 11 21 C4 87 D2 E9 B4 04 A6 20 0E 4C 04 AE EB BA FF AE 0B 98 F9 0D 9B 36 6D 5A 
04 40 5F 81 B8 A5 B3 B3 F3 B3 15 F2 D0 57 32 0A AD 62 22 91 F8 67 00 C7 85 79 BE 0F C0 5A 04 F3 
72 1C EA 75 00 80 10 A2 C4 F8 92 C9 E4 0C BD EF 6D 59 D6 18 00 D8 B6 7D 1A 80 8F 85 E2 2E 21 C4 
15 08 96 CB 40 44 A3 F9 B8 84 11 C6 5C 52 47 22 1A 05 82 48 B2 E1 3F 69 46 28 FF 49 6F 6F EF 1D 
83 83 83 CF 32 F3 A8 66 6C 33 10 FC 70 B8 42 7E 85 67 56 4A 7D 0F C1 3C 2A 98 F9 03 00 D6 00 B8 
62 C7 8E 1D BB 66 CD 2A 74 AB 61 59 56 54 1D 27 85 4C 26 B3 D6 71 9C 3E 00 97 03 38 0F C1 DF 7D 
BE A6 C2 00 AE 07 F0 C9 74 3A 5D F8 D1 D4 6B 8C BB 00 3C 52 87 DE F6 DA 2A 38 9C 99 FF BE C2 BD 
6D 00 56 03 B8 B6 46 40 4B 7D 00 A2 8F D8 E6 18 7A BA 71 EB 73 90 E6 00 A6 E4 9A 99 73 00 A0 4D 
80 97 E5 97 D7 A9 90 5F 89 8C 99 7D 00 98 3D 7B F6 4C DF F7 75 A3 48 F8 BE FF 06 00 CF 0A 21 72 
5A D0 4D D1 DF DF 6F 19 A3 D1 B2 FC 42 22 EB D8 DD DD 9D DB B4 A9 A4 EB DB B4 55 96 5A 38 8E F3 
8F 00 BE 05 20 FF 96 F4 01 E4 17 06 E6 20 E8 A3 9F 07 E0 74 C7 71 BE 2C A5 BC 02 D8 33 2B 30 D5 
98 06 60 87 65 59 0F 56 53 12 42 EC D2 FE 71 ED F9 2F CC 7C 15 11 BD 03 C1 00 68 04 C0 55 5A B2 
76 ED BB 19 77 AF E4 DA F7 FD 76 00 C8 66 B3 BF 4E 26 93 DF 40 F0 07 64 66 FE A1 56 56 87 D6 92 
45 C5 F1 D3 A7 2D DA 01 60 ED DA B5 9B 5D D7 FD 95 E6 34 72 DF DC B9 73 D7 67 32 19 28 A5 F4 FC 
C6 CC 69 11 E3 99 F5 51 F5 95 CC BC 18 41 4B FA 2A C2 D5 9B C7 1E 7B AC 23 99 2C B1 BF AA B1 06 
9B 85 EB BA 2B 98 39 BF 44 BB 13 C0 97 10 34 2E DB 80 60 FE B5 AD AD ED 7C 00 DF 40 60 AC FF E6 
BA EE 9C 4C 26 B3 62 4F 0C 60 6E 17 42 1C 91 FF 00 38 1E C0 E7 01 BC 80 E0 8F 7C 8E EF FB 0F F7 
F6 F6 EE 55 29 03 A5 D4 6B DA 65 C1 43 C8 F3 BC 5B 84 10 0B 88 E8 AC 5C 2E 77 B4 94 72 03 00 84 
41 D1 13 15 D2 23 9B CD 96 5C 13 D1 34 A0 10 FE 6D 1E 33 9F A9 94 EA F1 3C EF 87 A6 4E F8 BD 24 
7D C8 4E ED 7E 61 70 34 77 EE DC FF 43 44 A7 31 F3 19 9D 9D 9D A7 E4 57 8D F4 FC 10 0E 00 EA 79 
E6 4C 26 73 9D 10 C2 66 E6 33 13 89 C4 31 52 CA FF 01 00 CB B2 4A 9C 32 7C DF 8F AA 63 53 71 5D 
B7 87 99 F3 9E 5E 4A 29 75 86 94 F2 F2 BC 21 02 C0 86 0D 1B B6 48 29 2F 0D 97 02 19 00 98 F9 AB 
A9 54 2A B5 27 FA 8C 3B D2 E9 B4 FE FE D8 04 E0 A1 54 2A 75 A3 52 6A 00 C0 41 00 DE E2 FB FE FF 
03 70 6E 54 06 42 88 CD 5A 2B B1 3F B4 FE 55 3A 9D DE 88 60 FD B3 C0 CC 99 33 F7 CF E5 8A 0D 0D 
33 FF 59 BF DF DE DE FE AA 71 BF 30 3F 26 A5 FC 33 80 B2 D5 18 22 DA 5F AB C3 9F CD FB 00 36 6B 
BA 85 69 95 D0 F8 CA 26 AC 89 E8 8D 5A 7E 9B CD FB 11 CF 5C 20 9D 4E 0F 03 18 D6 65 89 44 62 FF 
D2 39 E8 C8 3A 36 15 66 FE 18 8A CE 37 77 86 2B 41 91 64 32 99 DB 1D C7 59 85 20 20 BD 50 4A 5D 
D8 32 53 3B E9 74 FA 19 21 44 C1 CD 8B 99 CF B1 6D 7B 51 94 AE 52 EA 71 ED B2 A3 A7 A7 A7 EA 08 
3E 97 CB 95 AC E2 08 21 F4 F4 18 1C 1C DC 8E 62 9F 06 42 88 B2 55 1F 13 66 2E B8 59 19 F5 C9 DF 
7F 5C FB DE 50 7E 88 08 78 AE 94 7A 42 BB 7C 43 D8 DA 57 44 29 A5 97 E9 CF 9A 35 AB EA DC 69 93 
F8 1B ED 7B 45 43 D4 B8 5B FB 7E 7C CB 18 23 00 A4 D3 E9 07 00 E4 07 2E 44 44 97 44 E9 B5 B7 B7 
97 FC B3 94 52 F3 AA E5 CB CC FA 48 6E 73 D8 DA 95 40 44 8F 69 FA 55 F3 0B 57 0F 0A 03 07 66 7E 
CC D4 11 42 E8 B2 AA F9 99 75 64 E6 32 63 B4 2C 4B 97 89 69 D3 A6 75 D5 C8 52 7F E6 A7 A6 28 AC 
71 61 80 47 44 AF D4 52 26 22 DD DB E9 C0 96 32 46 00 60 E6 2F A1 B8 1C 78 BC E3 38 4B 4D 9D D0 
4D BF B0 9D 20 F4 0D AC 08 11 2D D6 BE 3F 50 A1 DC DF 6A DF AB E6 97 4C 26 F5 FB 3B 3B 3A 3A D2 
A6 8E 52 EA B7 DA E5 21 0B 16 2C A8 D8 3A 3A 8E 33 9D 88 BA F3 D7 42 88 B2 3A 86 5D 9B 82 17 51 
AD 67 06 50 F3 99 27 81 42 5F 47 29 55 B1 CF 9F 87 99 F5 F9 D9 6C CB 19 A3 E7 79 8F 32 73 C1 8D 
4C 1B 99 95 40 44 77 68 DF CB FC 23 F3 F4 F7 F7 77 00 78 B7 26 8A 74 30 10 42 E8 F9 B9 95 5C D7 
C2 3A E9 E5 DD 1F 15 C0 DD F3 BC 21 68 AF FE 44 22 51 B1 8E 44 74 06 8A 83 92 B1 5D BB 76 55 7A 
C5 DD A9 A5 A9 98 9F E3 38 B3 A0 39 84 30 F3 1D 95 74 9B CC 73 DA F7 DE 3A F4 7B B4 EF CF B4 9C 
31 02 00 33 7F 37 FF 9D 88 8E 73 5D F7 E4 08 9D AB 51 9C 3B 9C 6F DB 76 A4 6B D8 C8 C8 C8 67 50 
5C 90 DF 1A 6E 51 28 23 9D 4E FF 0E C5 D6 96 7C DF 5F 11 A5 E7 38 CE 3C 22 5A A6 D5 EF CA 28 3D 
00 8A 88 F4 A9 A5 8B 16 2F 5E 5C B6 52 E3 38 4E 92 99 F5 E8 F5 3F DF B8 71 E3 0E 53 0F 00 84 10 
7A 59 C7 A7 52 A9 25 15 CA BE 18 C5 E5 CD 17 3A 3B 3B 6F AB A0 D7 6C 74 0F EE 65 D5 7E D0 0B 17 
2E 3C 0C 80 1E F8 EA DE 96 34 C6 A1 A1 A1 0C 80 C2 9A 74 54 EB 18 EE 80 2B 8C 72 89 E8 AA 54 2A 
F5 76 5D C7 71 9C B3 01 AC D0 74 4A A6 19 0C 14 33 7F 43 D3 3D D7 75 DD 2F 2F 5F BE BC E0 B4 11 
BA F0 DF 82 E2 34 D1 70 26 93 F9 75 A5 E7 60 E6 7F 41 71 21 E0 C0 B1 B1 B1 5B 7A 7A 7A F6 CD DF 
EF EA EA 9A C9 CC D7 01 C8 F7 FF B2 96 65 7D C7 CC 27 4F E8 9B 59 68 D9 95 52 37 18 CE C2 64 DB 
F6 05 00 3E A7 D5 E1 92 1A FD 45 4A A5 52 4B CC 0F C2 55 A2 30 8F 23 CD FB 3D 3D 3D 65 CE 1C CC 
FC 63 14 5F D5 D3 94 52 77 B8 AE DB 6D EA D9 B6 3D DF B2 AC DB 51 5C 55 CA 5A 96 F5 E3 7A 77 07 
6E 94 52 1E 5B E5 81 AA 62 EC 0E BC 49 4A 59 F1 15 A3 95 7F 02 80 82 0F A0 10 E2 E4 74 3A BD 4A 
D7 E9 E9 E9 D9 D7 F7 FD 34 8A 1E DF 79 57 AC A7 89 E8 28 14 FF C9 00 B0 66 74 74 F4 C4 8D 1B 37 
8E A3 0A 8E E3 FC 0C C1 EA 40 9E 27 11 4C 9B EC 8D C0 9F 30 6F 88 DB 99 79 91 E7 79 15 1D 48 01 
C0 B6 ED F7 11 D1 CD 28 6E 8F 18 21 A2 35 E1 0A CE 71 28 AE 52 00 C0 85 52 CA 9F 54 CB 2F DC 9E 
91 41 71 B0 C0 CC 3C 20 84 78 91 99 BB A0 6D 15 20 A2 3B E7 CE 9D 7B BA E9 01 6F 3C 6F 12 9A 93 
6B 03 5C 26 A5 BC C8 14 DA B6 FD 79 63 E0 C9 44 24 95 52 F9 BF D3 51 44 E4 A0 74 FF D5 A7 A5 94 
97 B7 64 CB 08 00 52 CA FB 01 FC 2E 7F AD 94 5A 61 EA AC 5D BB 76 B3 EF FB A7 40 73 5B 22 A2 54 
38 A1 AA 1B E2 DD 00 DE 53 CB 10 01 A0 B3 B3 F3 1F C2 2E 40 9E C3 10 78 4A F7 A3 68 88 CF 0A 21 
4E AD 65 88 00 E0 79 DE AF 98 F9 23 28 4E 64 77 86 CE AE A7 A3 68 88 59 04 DB 41 AB 1A 22 10 6C 
CF 00 70 0A 80 FC DE 68 22 A2 E3 C2 1F BB BE 67 E5 16 66 3E B3 9A 21 4E 06 9E E7 7D 1F C0 47 51 
7C 5E 62 66 97 88 CE 0D 3F 29 14 0D 71 84 88 CE 97 52 5E 0E 54 DF 37 BD 14 C1 76 4D 10 D1 4B 99 
4C E6 5F 26 5A 41 DB B6 3F 40 44 F9 96 75 BD 94 F2 BF EA 49 D7 DD DD DD 27 84 D0 07 1F 97 46 4D 
CB 84 FB 7E CF 61 E6 B3 01 1C 85 60 43 FB 4B CC 3C 2C 84 B8 3E 93 C9 FC 0A 0D EC C3 0E EB 7C 22 
11 9D 8F A0 93 FD 26 04 EB E6 7F 02 B0 72 7C 7C FC 9A 4A 2E FF 95 08 BD 6B 2E 00 F0 4E 00 87 20 
30 EC A7 01 AC 12 42 FC 47 38 59 5F 37 F3 E7 CF 9F 91 4C 26 CF 23 A2 33 99 F9 48 04 86 FD 02 11 
79 4A A9 6B 3D CF FB 0D EA D8 D7 1D 7A 4B 7D AB 91 B2 43 1E 94 52 FE 77 A5 9B 8E E3 EC C7 C1 D6 
E3 93 10 4C 33 ED 13 D6 67 0B 11 AD 67 E6 55 6D 6D 6D D7 E8 07 18 FC 2F C2 B9 35 32 ED 32 BD F7 
00 00 00 00 49 45 4E 44 AE 42 60 82 
EndData
$EndBitmap
Text Notes 1500 1150 0    50   ~ 10
PCB connector
Text Notes 2200 6000 0    50   Italic 0
AOP power supply
Text Notes 2500 1950 1    50   Italic 0
VDD comes from \nPSU board It is either \nUSB or Battery supply
Text Notes 3300 4200 0    50   ~ 10
IR LED sensor
Text Notes 4000 1950 1    50   Italic 0
3.3V comes from \nLDO on MCU board
Text Notes 4400 1150 0    50   ~ 10
RC snubber\n
Text Notes 4600 4300 0    50   Italic 0
AOP differential\nGain=470/10=47
Text Notes 4600 6000 0    50   Italic 0
Left IR LED sensor
Text Notes 5700 1150 0    50   ~ 10
IR LED driver (BJT version)
Text Notes 5700 1500 0    50   Italic 0
R14 and R15 are optionnal\nUse them to increase the\nforward current through the LEDs
Text Notes 8400 4300 0    50   Italic 0
AOP differential\nGain=470/10=47
Text Notes 8400 6000 0    50   Italic 0
Right IR LED sensor
Text Notes 8550 1100 0    50   ~ 10
Caution LEDs
Text Notes 8550 1500 0    50   Italic 0
A leds is placed at mid distance \nbetween the two IR leds. \nIt is intended to warn the user \nabout pontentiel IR beam flowing.
Text Label 4900 2400 0    50   ~ 0
SNUBBER
Text Label 6000 2450 2    50   ~ 0
TL_C
Text Label 6200 1900 0    50   ~ 0
LL_A
Text Label 6200 2300 0    50   ~ 0
LL_K
Text Label 6200 3500 0    50   ~ 0
TL_E
Text Label 6600 2850 0    50   ~ 0
TL_B
Text Label 6750 2450 1    50   ~ 0
IR_DRIVE
Text Label 7150 2850 0    50   ~ 0
TR_B
Text Label 7550 1900 0    50   ~ 0
LR_A
Text Label 7550 2300 0    50   ~ 0
LR_K
Text Label 7550 3500 0    50   ~ 0
TR_E
Text Label 7900 2450 2    50   ~ 0
TR_C
Text GLabel 2450 2400 2    50   Input ~ 0
IR_SENSE_RIGHT
Text GLabel 2450 2500 2    50   Input ~ 0
IR_DRIVE
Text GLabel 2450 2700 2    50   Input ~ 0
IR_SENSE_LEFT
Text GLabel 4150 5100 0    50   Input ~ 0
IR_SENSE_LEFT
Text GLabel 6900 2050 1    50   Input ~ 0
IR_DRIVE
Text GLabel 9550 5100 2    50   Input ~ 0
IR_SENSE_RIGHT
$Comp
L power:VDD #PWR01
U 1 1 606F33E3
P 2100 1850
F 0 "#PWR01" H 2100 1700 50  0001 C CNN
F 1 "VDD" H 2115 2023 50  0000 C CNN
F 2 "" H 2100 1850 50  0001 C CNN
F 3 "" H 2100 1850 50  0001 C CNN
	1    2100 1850
	1    0    0    -1  
$EndComp
$Comp
L power:+3.3V #PWR03
U 1 1 60639E59
P 2700 4550
F 0 "#PWR03" H 2700 4400 50  0001 C CNN
F 1 "+3.3V" H 2715 4723 50  0000 C CNN
F 2 "" H 2700 4550 50  0001 C CNN
F 3 "" H 2700 4550 50  0001 C CNN
	1    2700 4550
	1    0    0    -1  
$EndComp
$Comp
L power:+3.3V #PWR05
U 1 1 6062DEA3
P 3650 1850
F 0 "#PWR05" H 3650 1700 50  0001 C CNN
F 1 "+3.3V" H 3665 2023 50  0000 C CNN
F 2 "" H 3650 1850 50  0001 C CNN
F 3 "" H 3650 1850 50  0001 C CNN
	1    3650 1850
	1    0    0    -1  
$EndComp
$Comp
L power:VDD #PWR06
U 1 1 607082B4
P 4900 1850
F 0 "#PWR06" H 4900 1700 50  0001 C CNN
F 1 "VDD" H 4915 2023 50  0000 C CNN
F 2 "" H 4900 1850 50  0001 C CNN
F 3 "" H 4900 1850 50  0001 C CNN
	1    4900 1850
	1    0    0    -1  
$EndComp
$Comp
L power:VDD #PWR08
U 1 1 606F83DA
P 6200 1850
F 0 "#PWR08" H 6200 1700 50  0001 C CNN
F 1 "VDD" H 6215 2023 50  0000 C CNN
F 2 "" H 6200 1850 50  0001 C CNN
F 3 "" H 6200 1850 50  0001 C CNN
	1    6200 1850
	1    0    0    -1  
$EndComp
$Comp
L power:VDD #PWR011
U 1 1 607073B6
P 7550 1850
F 0 "#PWR011" H 7550 1700 50  0001 C CNN
F 1 "VDD" H 7565 2023 50  0000 C CNN
F 2 "" H 7550 1850 50  0001 C CNN
F 3 "" H 7550 1850 50  0001 C CNN
	1    7550 1850
	1    0    0    -1  
$EndComp
$Comp
L power:VDD #PWR013
U 1 1 61C2D6F2
P 9300 1850
F 0 "#PWR013" H 9300 1700 50  0001 C CNN
F 1 "VDD" H 9315 2023 50  0000 C CNN
F 2 "" H 9300 1850 50  0001 C CNN
F 3 "" H 9300 1850 50  0001 C CNN
	1    9300 1850
	1    0    0    -1  
$EndComp
$Comp
L power:PWR_FLAG #FLG01
U 1 1 607B478E
P 2100 2050
F 0 "#FLG01" H 2100 2125 50  0001 C CNN
F 1 "PWR_FLAG" V 2100 2178 50  0000 L CNN
F 2 "" H 2100 2050 50  0001 C CNN
F 3 "~" H 2100 2050 50  0001 C CNN
	1    2100 2050
	0    1    1    0   
$EndComp
$Comp
L power:PWR_FLAG #FLG02
U 1 1 607B4DF9
P 2350 3350
F 0 "#FLG02" H 2350 3425 50  0001 C CNN
F 1 "PWR_FLAG" V 2350 3478 50  0000 L CNN
F 2 "" H 2350 3350 50  0001 C CNN
F 3 "~" H 2350 3350 50  0001 C CNN
	1    2350 3350
	0    1    1    0   
$EndComp
$Comp
L power:PWR_FLAG #FLG03
U 1 1 607B3FC7
P 3650 2050
F 0 "#FLG03" H 3650 2125 50  0001 C CNN
F 1 "PWR_FLAG" V 3650 2178 50  0000 L CNN
F 2 "" H 3650 2050 50  0001 C CNN
F 3 "~" H 3650 2050 50  0001 C CNN
	1    3650 2050
	0    1    1    0   
$EndComp
$Comp
L power:GND #PWR02
U 1 1 5FF593CF
P 2350 3500
F 0 "#PWR02" H 2350 3250 50  0001 C CNN
F 1 "GND" H 2355 3327 50  0000 C CNN
F 2 "" H 2350 3500 50  0001 C CNN
F 3 "" H 2350 3500 50  0001 C CNN
	1    2350 3500
	1    0    0    -1  
$EndComp
$Comp
L power:GND #PWR04
U 1 1 604AB497
P 2700 5550
F 0 "#PWR04" H 2700 5300 50  0001 C CNN
F 1 "GND" H 2705 5377 50  0000 C CNN
F 2 "" H 2700 5550 50  0001 C CNN
F 3 "" H 2700 5550 50  0001 C CNN
	1    2700 5550
	1    0    0    -1  
$EndComp
$Comp
L power:GND #PWR07
U 1 1 604AB266
P 4900 3500
F 0 "#PWR07" H 4900 3250 50  0001 C CNN
F 1 "GND" H 4905 3327 50  0000 C CNN
F 2 "" H 4900 3500 50  0001 C CNN
F 3 "" H 4900 3500 50  0001 C CNN
	1    4900 3500
	1    0    0    -1  
$EndComp
$Comp
L power:GND #PWR09
U 1 1 6042945B
P 6200 3500
F 0 "#PWR09" H 6200 3250 50  0001 C CNN
F 1 "GND" H 6205 3327 50  0000 C CNN
F 2 "" H 6200 3500 50  0001 C CNN
F 3 "" H 6200 3500 50  0001 C CNN
	1    6200 3500
	1    0    0    -1  
$EndComp
$Comp
L power:GND #PWR010
U 1 1 60393215
P 6900 5750
F 0 "#PWR010" H 6900 5500 50  0001 C CNN
F 1 "GND" H 6905 5577 50  0000 C CNN
F 2 "" H 6900 5750 50  0001 C CNN
F 3 "" H 6900 5750 50  0001 C CNN
	1    6900 5750
	1    0    0    -1  
$EndComp
$Comp
L power:GND #PWR012
U 1 1 6042A06E
P 7550 3500
F 0 "#PWR012" H 7550 3250 50  0001 C CNN
F 1 "GND" H 7555 3327 50  0000 C CNN
F 2 "" H 7550 3500 50  0001 C CNN
F 3 "" H 7550 3500 50  0001 C CNN
	1    7550 3500
	1    0    0    -1  
$EndComp
$Comp
L power:GND #PWR014
U 1 1 61C3DA4F
P 9300 3500
F 0 "#PWR014" H 9300 3250 50  0001 C CNN
F 1 "GND" H 9305 3327 50  0000 C CNN
F 2 "" H 9300 3500 50  0001 C CNN
F 3 "" H 9300 3500 50  0001 C CNN
	1    9300 3500
	1    0    0    -1  
$EndComp
$Comp
L Amplifier_Operational:MCP6002-xSN U1
U 3 1 6038E58B
P 2800 5050
F 0 "U1" H 2758 5096 50  0000 L CNN
F 1 "MCP6002-xSN" H 2758 5005 50  0000 L CNN
F 2 "2101:SOIC127P600X175-8N" H 2800 5050 50  0001 C CNN
F 3 "https://datasheet.lcsc.com/szlcsc/1811081213_Microchip-Tech-MCP6002T-I-SN_C7377.pdf" H 2800 5050 50  0001 C CNN
F 4 "General Purpose 2 1.8V ~ 6V 100uA 1MHz 0.6 V/us SOIC-8_150mil Low Power OpAmps RoHS" H 2800 5050 50  0001 C CNN "Description"
F 5 "C7377" H 2800 5050 50  0001 C CNN "LCSC"
F 6 "Microchip Tech" H 2800 5050 50  0001 C CNN "Manufacturer_Name"
F 7 "MCP6002T-I/SN" H 2800 5050 50  0001 C CNN "Manufacturer_Part_Number"
	3    2800 5050
	1    0    0    -1  
$EndComp
$Comp
L Device:R_US R13
U 1 1 604D7BA5
P 4900 2600
F 0 "R13" H 4968 2646 50  0000 L CNN
F 1 "2" H 4968 2555 50  0000 L CNN
F 2 "Resistor_SMD:R_1206_3216Metric_Pad1.30x1.75mm_HandSolder" V 4940 2590 50  0001 C CNN
F 3 "https://datasheet.lcsc.com/szlcsc/1811141451_YAGEO-RT1206FRD073RL_C326707.pdf" H 4900 2600 50  0001 C CNN
F 4 "2 ±1% 1/4W 1206 High Precision & Low TCR SMD Resistors RoHS" H 4900 2600 50  0001 C CNN "Description"
F 5 "C326707" H 4900 2600 50  0001 C CNN "LCSC"
F 6 "YAGEO" H 4900 2600 50  0001 C CNN "Manufacturer_Name"
F 7 "RT1206FRD073RL" H 4900 2600 50  0001 C CNN "Manufacturer_Part_Number"
	1    4900 2600
	1    0    0    -1  
$EndComp
$Comp
L Device:R_US R1
U 1 1 60507096
P 5000 4700
F 0 "R1" H 5068 4746 50  0000 L CNN
F 1 "470K" H 5068 4655 50  0000 L CNN
F 2 "Resistor_SMD:R_0805_2012Metric_Pad1.20x1.40mm_HandSolder" V 5040 4690 50  0001 C CNN
F 3 "https://datasheet.lcsc.com/szlcsc/1810261825_Viking-Tech-ARG05FTC4703_C218589.pdf" H 5000 4700 50  0001 C CNN
F 4 "470K ±1% 1/8W 0805 High Precision & Low TCR SMD Resistors RoHS" H 5000 4700 50  0001 C CNN "Description"
F 5 "C218589" H 5000 4700 50  0001 C CNN "LCSC"
F 6 "Viking Tech" H 5000 4700 50  0001 C CNN "Manufacturer_Name"
F 7 "ARG05FTC4703" H 5000 4700 50  0001 C CNN "Manufacturer_Part_Number"
	1    5000 4700
	0    -1   -1   0   
$EndComp
$Comp
L Device:R_US R2
U 1 1 604C7B83
P 5650 4450
F 0 "R2" H 5500 4500 50  0000 L CNN
F 1 "10K" H 5450 4400 50  0000 L CNN
F 2 "Resistor_SMD:R_0805_2012Metric_Pad1.20x1.40mm_HandSolder" V 5690 4440 50  0001 C CNN
F 3 "https://datasheet.lcsc.com/szlcsc/1810261818_Viking-Tech-ARG05FTC1002_C217770.pdf" H 5650 4450 50  0001 C CNN
F 4 "10K ±1% 1/8W 0805 High Precision & Low TCR SMD Resistors RoHS" H 5650 4450 50  0001 C CNN "Description"
F 5 "C217770" H 5650 4450 50  0001 C CNN "LCSC"
F 6 "Viking Tech" H 5650 4450 50  0001 C CNN "Manufacturer_Name"
F 7 "ARG05FTC1002" H 5650 4450 50  0001 C CNN "Manufacturer_Part_Number"
	1    5650 4450
	1    0    0    -1  
$EndComp
$Comp
L Device:R_US R3
U 1 1 604F6001
P 5850 4450
F 0 "R3" H 5918 4496 50  0000 L CNN
F 1 "10K" H 5918 4405 50  0000 L CNN
F 2 "Resistor_SMD:R_0805_2012Metric_Pad1.20x1.40mm_HandSolder" V 5890 4440 50  0001 C CNN
F 3 "https://datasheet.lcsc.com/szlcsc/1810261818_Viking-Tech-ARG05FTC1002_C217770.pdf" H 5850 4450 50  0001 C CNN
F 4 "10K ±1% 1/8W 0805 High Precision & Low TCR SMD Resistors RoHS" H 5850 4450 50  0001 C CNN "Description"
F 5 "C217770" H 5850 4450 50  0001 C CNN "LCSC"
F 6 "Viking Tech" H 5850 4450 50  0001 C CNN "Manufacturer_Name"
F 7 "ARG05FTC1002" H 5850 4450 50  0001 C CNN "Manufacturer_Part_Number"
	1    5850 4450
	1    0    0    -1  
$EndComp
$Comp
L Device:R_US R5
U 1 1 603649FF
P 5850 5350
F 0 "R5" H 5918 5396 50  0000 L CNN
F 1 "470K" H 5918 5305 50  0000 L CNN
F 2 "Resistor_SMD:R_0805_2012Metric_Pad1.20x1.40mm_HandSolder" V 5890 5340 50  0001 C CNN
F 3 "https://datasheet.lcsc.com/szlcsc/1810261825_Viking-Tech-ARG05FTC4703_C218589.pdf" H 5850 5350 50  0001 C CNN
F 4 "470K ±1% 1/8W 0805 High Precision & Low TCR SMD Resistors RoHS" H 5850 5350 50  0001 C CNN "Description"
F 5 "C218589" H 5850 5350 50  0001 C CNN "LCSC"
F 6 "Viking Tech" H 5850 5350 50  0001 C CNN "Manufacturer_Name"
F 7 "ARG05FTC4703" H 5850 5350 50  0001 C CNN "Manufacturer_Part_Number"
	1    5850 5350
	1    0    0    -1  
$EndComp
$Comp
L Device:R_US R4
U 1 1 6042F250
P 6100 2600
F 0 "R4" H 5950 2650 50  0000 L CNN
F 1 "2" H 6000 2550 50  0000 L CNN
F 2 "Resistor_SMD:R_1206_3216Metric_Pad1.30x1.75mm_HandSolder" V 6140 2590 50  0001 C CNN
F 3 "https://datasheet.lcsc.com/szlcsc/1811141451_YAGEO-RT1206FRD073RL_C326707.pdf" H 6100 2600 50  0001 C CNN
F 4 "2 ±1% 1/4W 1206 High Precision & Low TCR SMD Resistors RoHS" H 6100 2600 50  0001 C CNN "Description"
F 5 "C326707" H 6100 2600 50  0001 C CNN "LCSC"
F 6 "YAGEO" H 6100 2600 50  0001 C CNN "Manufacturer_Name"
F 7 "RT1206FRD073RL" H 6100 2600 50  0001 C CNN "Manufacturer_Part_Number"
	1    6100 2600
	1    0    0    -1  
$EndComp
$Comp
L Device:R_US R14
U 1 1 604AD361
P 6300 2600
F 0 "R14" H 6368 2646 50  0000 L CNN
F 1 "2" H 6368 2555 50  0000 L CNN
F 2 "Resistor_SMD:R_1206_3216Metric_Pad1.30x1.75mm_HandSolder" V 6340 2590 50  0001 C CNN
F 3 "https://datasheet.lcsc.com/szlcsc/1811141451_YAGEO-RT1206FRD073RL_C326707.pdf" H 6300 2600 50  0001 C CNN
F 4 "2 ±1% 1/4W 1206 High Precision & Low TCR SMD Resistors RoHS" H 6300 2600 50  0001 C CNN "Description"
F 5 "C326707" H 6300 2600 50  0001 C CNN "LCSC"
F 6 "YAGEO" H 6300 2600 50  0001 C CNN "Manufacturer_Name"
F 7 "RT1206FRD073RL" H 6300 2600 50  0001 C CNN "Manufacturer_Part_Number"
	1    6300 2600
	1    0    0    -1  
$EndComp
$Comp
L Device:R_US R6
U 1 1 60491B86
P 6600 2600
F 0 "R6" H 6668 2646 50  0000 L CNN
F 1 "550" H 6668 2555 50  0000 L CNN
F 2 "Resistor_SMD:R_0805_2012Metric_Pad1.20x1.40mm_HandSolder" V 6640 2590 50  0001 C CNN
F 3 "https://datasheet.lcsc.com/szlcsc/1810261819_Viking-Tech-ARG05FTC5490_C218620.pdf" H 6600 2600 50  0001 C CNN
F 4 "549 ±1% 1/8W 0805 High Precision & Low TCR SMD Resistors RoHS" H 6600 2600 50  0001 C CNN "Description"
F 5 "C218620" H 6600 2600 50  0001 C CNN "LCSC"
F 6 "Viking Tech" H 6600 2600 50  0001 C CNN "Manufacturer_Name"
F 7 "ARG05FTC5490" H 6600 2600 50  0001 C CNN "Manufacturer_Part_Number"
	1    6600 2600
	1    0    0    -1  
$EndComp
$Comp
L Device:R_US R7
U 1 1 604929CD
P 7150 2600
F 0 "R7" H 7000 2650 50  0000 L CNN
F 1 "550" H 6950 2550 50  0000 L CNN
F 2 "Resistor_SMD:R_0805_2012Metric_Pad1.20x1.40mm_HandSolder" V 7190 2590 50  0001 C CNN
F 3 "https://datasheet.lcsc.com/szlcsc/1810261819_Viking-Tech-ARG05FTC5490_C218620.pdf" H 7150 2600 50  0001 C CNN
F 4 "549 ±1% 1/8W 0805 High Precision & Low TCR SMD Resistors RoHS" H 7150 2600 50  0001 C CNN "Description"
F 5 "C218620" H 7150 2600 50  0001 C CNN "LCSC"
F 6 "Viking Tech" H 7150 2600 50  0001 C CNN "Manufacturer_Name"
F 7 "ARG05FTC5490" H 7150 2600 50  0001 C CNN "Manufacturer_Part_Number"
	1    7150 2600
	1    0    0    -1  
$EndComp
$Comp
L Device:R_US R15
U 1 1 604BE513
P 7450 2600
F 0 "R15" H 7400 2650 50  0000 R CNN
F 1 "2" H 7400 2550 50  0000 R CNN
F 2 "Resistor_SMD:R_1206_3216Metric_Pad1.30x1.75mm_HandSolder" V 7490 2590 50  0001 C CNN
F 3 "https://datasheet.lcsc.com/szlcsc/1811141451_YAGEO-RT1206FRD073RL_C326707.pdf" H 7450 2600 50  0001 C CNN
F 4 "2 ±1% 1/4W 1206 High Precision & Low TCR SMD Resistors RoHS" H 7450 2600 50  0001 C CNN "Description"
F 5 "C326707" H 7450 2600 50  0001 C CNN "LCSC"
F 6 "YAGEO" H 7450 2600 50  0001 C CNN "Manufacturer_Name"
F 7 "RT1206FRD073RL" H 7450 2600 50  0001 C CNN "Manufacturer_Part_Number"
	1    7450 2600
	1    0    0    -1  
$EndComp
$Comp
L Device:R_US R8
U 1 1 60430421
P 7650 2600
F 0 "R8" H 7718 2646 50  0000 L CNN
F 1 "2" H 7718 2555 50  0000 L CNN
F 2 "Resistor_SMD:R_1206_3216Metric_Pad1.30x1.75mm_HandSolder" V 7690 2590 50  0001 C CNN
F 3 "https://datasheet.lcsc.com/szlcsc/1811141451_YAGEO-RT1206FRD073RL_C326707.pdf" H 7650 2600 50  0001 C CNN
F 4 "2 ±1% 1/4W 1206 High Precision & Low TCR SMD Resistors RoHS" H 7650 2600 50  0001 C CNN "Description"
F 5 "C326707" H 7650 2600 50  0001 C CNN "LCSC"
F 6 "YAGEO" H 7650 2600 50  0001 C CNN "Manufacturer_Name"
F 7 "RT1206FRD073RL" H 7650 2600 50  0001 C CNN "Manufacturer_Part_Number"
	1    7650 2600
	1    0    0    -1  
$EndComp
$Comp
L Device:R_US R9
U 1 1 604F70A8
P 7900 4450
F 0 "R9" H 7750 4500 50  0000 L CNN
F 1 "10K" H 7700 4400 50  0000 L CNN
F 2 "Resistor_SMD:R_0805_2012Metric_Pad1.20x1.40mm_HandSolder" V 7940 4440 50  0001 C CNN
F 3 "https://datasheet.lcsc.com/szlcsc/1810261818_Viking-Tech-ARG05FTC1002_C217770.pdf" H 7900 4450 50  0001 C CNN
F 4 "10K ±1% 1/8W 0805 High Precision & Low TCR SMD Resistors RoHS" H 7900 4450 50  0001 C CNN "Description"
F 5 "C217770" H 7900 4450 50  0001 C CNN "LCSC"
F 6 "Viking Tech" H 7900 4450 50  0001 C CNN "Manufacturer_Name"
F 7 "ARG05FTC1002" H 7900 4450 50  0001 C CNN "Manufacturer_Part_Number"
	1    7900 4450
	1    0    0    -1  
$EndComp
$Comp
L Device:R_US R10
U 1 1 60474D59
P 7900 5350
F 0 "R10" H 7968 5396 50  0000 L CNN
F 1 "470K" H 7968 5305 50  0000 L CNN
F 2 "Resistor_SMD:R_0805_2012Metric_Pad1.20x1.40mm_HandSolder" V 7940 5340 50  0001 C CNN
F 3 "https://datasheet.lcsc.com/szlcsc/1810261825_Viking-Tech-ARG05FTC4703_C218589.pdf" H 7900 5350 50  0001 C CNN
F 4 "470K ±1% 1/8W 0805 High Precision & Low TCR SMD Resistors RoHS" H 7900 5350 50  0001 C CNN "Description"
F 5 "C218589" H 7900 5350 50  0001 C CNN "LCSC"
F 6 "Viking Tech" H 7900 5350 50  0001 C CNN "Manufacturer_Name"
F 7 "ARG05FTC4703" H 7900 5350 50  0001 C CNN "Manufacturer_Part_Number"
	1    7900 5350
	1    0    0    -1  
$EndComp
$Comp
L Device:R_US R11
U 1 1 604C8BC8
P 8100 4450
F 0 "R11" H 8168 4496 50  0000 L CNN
F 1 "10K" H 8168 4405 50  0000 L CNN
F 2 "Resistor_SMD:R_0805_2012Metric_Pad1.20x1.40mm_HandSolder" V 8140 4440 50  0001 C CNN
F 3 "https://datasheet.lcsc.com/szlcsc/1810261818_Viking-Tech-ARG05FTC1002_C217770.pdf" H 8100 4450 50  0001 C CNN
F 4 "10K ±1% 1/8W 0805 High Precision & Low TCR SMD Resistors RoHS" H 8100 4450 50  0001 C CNN "Description"
F 5 "C217770" H 8100 4450 50  0001 C CNN "LCSC"
F 6 "Viking Tech" H 8100 4450 50  0001 C CNN "Manufacturer_Name"
F 7 "ARG05FTC1002" H 8100 4450 50  0001 C CNN "Manufacturer_Part_Number"
	1    8100 4450
	1    0    0    -1  
$EndComp
$Comp
L Device:R_US R12
U 1 1 6050824F
P 8750 4700
F 0 "R12" H 8818 4746 50  0000 L CNN
F 1 "470K" H 8818 4655 50  0000 L CNN
F 2 "Resistor_SMD:R_0805_2012Metric_Pad1.20x1.40mm_HandSolder" V 8790 4690 50  0001 C CNN
F 3 "https://datasheet.lcsc.com/szlcsc/1810261825_Viking-Tech-ARG05FTC4703_C218589.pdf" H 8750 4700 50  0001 C CNN
F 4 "470K ±1% 1/8W 0805 High Precision & Low TCR SMD Resistors RoHS" H 8750 4700 50  0001 C CNN "Description"
F 5 "C218589" H 8750 4700 50  0001 C CNN "LCSC"
F 6 "Viking Tech" H 8750 4700 50  0001 C CNN "Manufacturer_Name"
F 7 "ARG05FTC4703" H 8750 4700 50  0001 C CNN "Manufacturer_Part_Number"
	1    8750 4700
	0    -1   -1   0   
$EndComp
$Comp
L Device:R_US R16
U 1 1 61C2C87A
P 9300 2600
F 0 "R16" H 9250 2650 50  0000 R CNN
F 1 "91" H 9250 2550 50  0000 R CNN
F 2 "Resistor_SMD:R_1206_3216Metric_Pad1.30x1.75mm_HandSolder" V 9340 2590 50  0001 C CNN
F 3 "https://datasheet.lcsc.com/szlcsc/1811141451_YAGEO-RT1206FRD073RL_C326707.pdf" H 9300 2600 50  0001 C CNN
F 4 "2 ±1% 1/4W 1206 High Precision & Low TCR SMD Resistors RoHS" H 9300 2600 50  0001 C CNN "Description"
F 5 "C326707" H 9300 2600 50  0001 C CNN "LCSC"
F 6 "YAGEO" H 9300 2600 50  0001 C CNN "Manufacturer_Name"
F 7 "RT1206FRD073RL" H 9300 2600 50  0001 C CNN "Manufacturer_Part_Number"
	1    9300 2600
	1    0    0    -1  
$EndComp
$Comp
L Device:C_Small C3
U 1 1 604A225A
P 2300 5050
F 0 "C3" H 2392 5096 50  0000 L CNN
F 1 "100nF" H 2392 5005 50  0000 L CNN
F 2 "Capacitor_SMD:C_0805_2012Metric_Pad1.18x1.45mm_HandSolder" H 2300 5050 50  0001 C CNN
F 3 "https://datasheet.lcsc.com/szlcsc/1810241124_Samsung-Electro-Mechanics-CL21F104ZBCNNNC_C1760.pdf" H 2300 5050 50  0001 C CNN
F 4 "100nF -20%,+80% 50V Y5V 0805 Multilayer Ceramic Capacitors MLCC - SMD/SMT RoHS" H 2300 5050 50  0001 C CNN "Description"
F 5 "C1760" H 2300 5050 50  0001 C CNN "LCSC"
F 6 "Samsung Electro-Mechanics" H 2300 5050 50  0001 C CNN "Manufacturer_Name"
F 7 "CL21F104ZBCNNNC" H 2300 5050 50  0001 C CNN "Manufacturer_Part_Number"
	1    2300 5050
	1    0    0    -1  
$EndComp
$Comp
L Device:C_Small C1
U 1 1 604D65DD
P 4900 2100
F 0 "C1" H 4992 2146 50  0000 L CNN
F 1 "100nF" H 4992 2055 50  0000 L CNN
F 2 "Capacitor_SMD:C_0805_2012Metric_Pad1.18x1.45mm_HandSolder" H 4900 2100 50  0001 C CNN
F 3 "https://datasheet.lcsc.com/szlcsc/1810241124_Samsung-Electro-Mechanics-CL21F104ZBCNNNC_C1760.pdf" H 4900 2100 50  0001 C CNN
F 4 "100nF -20%,+80% 50V Y5V 0805 Multilayer Ceramic Capacitors MLCC - SMD/SMT RoHS" H 4900 2100 50  0001 C CNN "Description"
F 5 "C1760" H 4900 2100 50  0001 C CNN "LCSC"
F 6 "Samsung Electro-Mechanics" H 4900 2100 50  0001 C CNN "Manufacturer_Name"
F 7 "CL21F104ZBCNNNC" H 4900 2100 50  0001 C CNN "Manufacturer_Part_Number"
	1    4900 2100
	1    0    0    -1  
$EndComp
$Comp
L Device:LED D1
U 1 1 6043114C
P 6200 2050
F 0 "D1" V 6239 1932 50  0000 R CNN
F 1 "LED" V 6148 1932 50  0000 R CNN
F 2 "LED_SMD:LED_1W_3W_R8" H 6200 2050 50  0001 C CNN
F 3 "~" H 6200 2050 50  0001 C CNN
	1    6200 2050
	0    -1   -1   0   
$EndComp
$Comp
L Device:LED D2
U 1 1 60431DA8
P 7550 2050
F 0 "D2" V 7589 1932 50  0000 R CNN
F 1 "LED" V 7498 1932 50  0000 R CNN
F 2 "LED_SMD:LED_1W_3W_R8" H 7550 2050 50  0001 C CNN
F 3 "~" H 7550 2050 50  0001 C CNN
	1    7550 2050
	0    -1   -1   0   
$EndComp
$Comp
L Device:LED D3
U 1 1 61A50BD6
P 9300 2050
F 0 "D3" V 9300 2200 50  0000 R CNN
F 1 "RED" H 9400 1950 50  0000 R CNN
F 2 "LED_SMD:LED_0805_2012Metric_Pad1.15x1.40mm_HandSolder" H 9300 2050 50  0001 C CNN
F 3 "~" H 9300 2050 50  0001 C CNN
	1    9300 2050
	0    -1   -1   0   
$EndComp
$Comp
L Connector:Conn_01x06_Female J1
U 1 1 603F5F24
P 1750 2600
F 0 "J1" H 1750 3000 50  0000 C CNN
F 1 "Conn_01x06_Female" V 1850 2500 50  0000 C CNN
F 2 "Connector_PinSocket_2.54mm:PinSocket_1x06_P2.54mm_Vertical" H 1750 2600 50  0001 C CNN
F 3 "https://datasheet.lcsc.com/szlcsc/1810221611_BOOMELE-Boom-Precision-Elec-C40877_C40877.pdf" H 1750 2600 50  0001 C CNN
F 4 "Female Header 6 1 Straight，180degrees 2.54mm 2.54mm Pin Header & Female Header RoHS" H 1750 2600 50  0001 C CNN "Description"
F 5 "C40877" H 1750 2600 50  0001 C CNN "LCSC"
F 6 "BOOMELE(Boom Precision Elec)" H 1750 2600 50  0001 C CNN "Manufacturer_Name"
F 7 "C40877" H 1750 2600 50  0001 C CNN "Manufacturer_Part_Number"
	1    1750 2600
	-1   0    0    1   
$EndComp
$Comp
L Amplifier_Operational:MCP6002-xSN U1
U 1 1 6038C473
P 4950 5100
F 0 "U1" H 4950 5467 50  0000 C CNN
F 1 "MCP6002-xSN" H 4950 5376 50  0000 C CNN
F 2 "2101:SOIC127P600X175-8N" H 4950 5100 50  0001 C CNN
F 3 "https://datasheet.lcsc.com/szlcsc/1811081213_Microchip-Tech-MCP6002T-I-SN_C7377.pdf" H 4950 5100 50  0001 C CNN
F 4 "General Purpose 2 1.8V ~ 6V 100uA 1MHz 0.6 V/us SOIC-8_150mil Low Power OpAmps RoHS" H 4950 5100 50  0001 C CNN "Description"
F 5 "C7377" H 4950 5100 50  0001 C CNN "LCSC"
F 6 "Microchip Tech" H 4950 5100 50  0001 C CNN "Manufacturer_Name"
F 7 "MCP6002T-I/SN" H 4950 5100 50  0001 C CNN "Manufacturer_Part_Number"
	1    4950 5100
	-1   0    0    1   
$EndComp
$Comp
L Amplifier_Operational:MCP6002-xSN U1
U 2 1 6032D1B4
P 8800 5100
F 0 "U1" H 8800 5467 50  0000 C CNN
F 1 "MCP6002-xSN" H 8800 5376 50  0000 C CNN
F 2 "2101:SOIC127P600X175-8N" H 8800 5100 50  0001 C CNN
F 3 "https://datasheet.lcsc.com/szlcsc/1811081213_Microchip-Tech-MCP6002T-I-SN_C7377.pdf" H 8800 5100 50  0001 C CNN
F 4 "General Purpose 2 1.8V ~ 6V 100uA 1MHz 0.6 V/us SOIC-8_150mil Low Power OpAmps RoHS" H 8800 5100 50  0001 C CNN "Description"
F 5 "C7377" H 8800 5100 50  0001 C CNN "LCSC"
F 6 "Microchip Tech" H 8800 5100 50  0001 C CNN "Manufacturer_Name"
F 7 "MCP6002T-I/SN" H 8800 5100 50  0001 C CNN "Manufacturer_Part_Number"
	2    8800 5100
	1    0    0    1   
$EndComp
$Comp
L omv_parts:BCX19,215 Q1
U 1 1 6041B6B0
P 6600 3100
F 0 "Q1" H 7100 3250 50  0000 L CNN
F 1 "BCX19,215" H 6400 2950 50  0000 L CNN
F 2 "2101:SOT95P230X110-3N" H 7150 2950 50  0001 L CNN
F 3 "https://datasheet.lcsc.com/szlcsc/1912111437_Nexperia-BCX19-215_C417382.pdf" H 7150 2850 50  0001 L CNN
F 4 "NPN 500mA 45V 250mW SOT-23-3 Transistors (NPN/PNP) RoHS" H 7150 2750 50  0001 L CNN "Description"
F 5 "1.1" H 7150 2650 50  0001 L CNN "Height"
F 6 "Nexperia" H 7150 2550 50  0001 L CNN "Manufacturer_Name"
F 7 "BCX19,215" H 7150 2450 50  0001 L CNN "Manufacturer_Part_Number"
F 8 "771-BCX19-T/R" H 7150 2350 50  0001 L CNN "Mouser Part Number"
F 9 "https://www.mouser.co.uk/ProductDetail/Nexperia/BCX19215?qs=me8TqzrmIYUpnpGGhKeedw%3D%3D" H 7150 2250 50  0001 L CNN "Mouser Price/Stock"
F 10 "BCX19,215" H 7150 2150 50  0001 L CNN "Arrow Part Number"
F 11 "https://www.arrow.com/en/products/bcx19215/nexperia" H 7150 2050 50  0001 L CNN "Arrow Price/Stock"
F 12 "C417382" H 6600 3100 50  0001 C CNN "LCSC"
	1    6600 3100
	-1   0    0    -1  
$EndComp
$Comp
L omv_parts:BCX19,215 Q2
U 1 1 603D7B4E
P 7150 3100
F 0 "Q2" H 7250 3250 50  0000 L CNN
F 1 "BCX19,215" H 6950 2950 50  0000 L CNN
F 2 "2101:SOT95P230X110-3N" H 7700 2950 50  0001 L CNN
F 3 "https://datasheet.lcsc.com/szlcsc/1912111437_Nexperia-BCX19-215_C417382.pdf" H 7700 2850 50  0001 L CNN
F 4 "NPN 500mA 45V 250mW SOT-23-3 Transistors (NPN/PNP) RoHS" H 7700 2750 50  0001 L CNN "Description"
F 5 "1.1" H 7700 2650 50  0001 L CNN "Height"
F 6 "Nexperia" H 7700 2550 50  0001 L CNN "Manufacturer_Name"
F 7 "BCX19,215" H 7700 2450 50  0001 L CNN "Manufacturer_Part_Number"
F 8 "771-BCX19-T/R" H 7700 2350 50  0001 L CNN "Mouser Part Number"
F 9 "https://www.mouser.co.uk/ProductDetail/Nexperia/BCX19215?qs=me8TqzrmIYUpnpGGhKeedw%3D%3D" H 7700 2250 50  0001 L CNN "Mouser Price/Stock"
F 10 "BCX19,215" H 7700 2150 50  0001 L CNN "Arrow Part Number"
F 11 "https://www.arrow.com/en/products/bcx19215/nexperia" H 7700 2050 50  0001 L CNN "Arrow Price/Stock"
F 12 "C417382" H 7150 3100 50  0001 C CNN "LCSC"
	1    7150 3100
	1    0    0    -1  
$EndComp
$EndSCHEMATC
