G04 #@! TF.GenerationSoftware,KiCad,Pcbnew,5.1.12-84ad8e8a86~92~ubuntu20.04.1*
G04 #@! TF.CreationDate,2021-12-15T18:14:49+01:00*
G04 #@! TF.ProjectId,ir_led_pcb,69725f6c-6564-45f7-9063-622e6b696361,rev?*
G04 #@! TF.SameCoordinates,Original*
G04 #@! TF.FileFunction,Copper,L1,Top*
G04 #@! TF.FilePolarity,Positive*
%FSLAX46Y46*%
G04 Gerber Fmt 4.6, Leading zero omitted, Abs format (unit mm)*
G04 Created by KiCad (PCBNEW 5.1.12-84ad8e8a86~92~ubuntu20.04.1) date 2021-12-15 18:14:49*
%MOMM*%
%LPD*%
G01*
G04 APERTURE LIST*
G04 #@! TA.AperFunction,SMDPad,CuDef*
%ADD10R,0.600000X1.050000*%
G04 #@! TD*
G04 #@! TA.AperFunction,ComponentPad*
%ADD11O,1.700000X1.700000*%
G04 #@! TD*
G04 #@! TA.AperFunction,ComponentPad*
%ADD12R,1.700000X1.700000*%
G04 #@! TD*
G04 #@! TA.AperFunction,SMDPad,CuDef*
%ADD13R,1.525000X0.650000*%
G04 #@! TD*
G04 #@! TA.AperFunction,ViaPad*
%ADD14C,1.000000*%
G04 #@! TD*
G04 #@! TA.AperFunction,ViaPad*
%ADD15C,0.800000*%
G04 #@! TD*
G04 #@! TA.AperFunction,Conductor*
%ADD16C,0.200000*%
G04 #@! TD*
G04 #@! TA.AperFunction,Conductor*
%ADD17C,0.600000*%
G04 #@! TD*
G04 APERTURE END LIST*
D10*
X117345500Y-70718500D03*
X115445500Y-70718500D03*
X116395500Y-72918500D03*
G04 #@! TA.AperFunction,SMDPad,CuDef*
G36*
G01*
X137830000Y-68268001D02*
X137830000Y-67367999D01*
G75*
G02*
X138079999Y-67118000I249999J0D01*
G01*
X138780001Y-67118000D01*
G75*
G02*
X139030000Y-67367999I0J-249999D01*
G01*
X139030000Y-68268001D01*
G75*
G02*
X138780001Y-68518000I-249999J0D01*
G01*
X138079999Y-68518000D01*
G75*
G02*
X137830000Y-68268001I0J249999D01*
G01*
G37*
G04 #@! TD.AperFunction*
G04 #@! TA.AperFunction,SMDPad,CuDef*
G36*
G01*
X135830000Y-68268001D02*
X135830000Y-67367999D01*
G75*
G02*
X136079999Y-67118000I249999J0D01*
G01*
X136780001Y-67118000D01*
G75*
G02*
X137030000Y-67367999I0J-249999D01*
G01*
X137030000Y-68268001D01*
G75*
G02*
X136780001Y-68518000I-249999J0D01*
G01*
X136079999Y-68518000D01*
G75*
G02*
X135830000Y-68268001I0J249999D01*
G01*
G37*
G04 #@! TD.AperFunction*
G04 #@! TA.AperFunction,SMDPad,CuDef*
G36*
G01*
X116059000Y-67748999D02*
X116059000Y-68649001D01*
G75*
G02*
X115809001Y-68899000I-249999J0D01*
G01*
X115108999Y-68899000D01*
G75*
G02*
X114859000Y-68649001I0J249999D01*
G01*
X114859000Y-67748999D01*
G75*
G02*
X115108999Y-67499000I249999J0D01*
G01*
X115809001Y-67499000D01*
G75*
G02*
X116059000Y-67748999I0J-249999D01*
G01*
G37*
G04 #@! TD.AperFunction*
G04 #@! TA.AperFunction,SMDPad,CuDef*
G36*
G01*
X118059000Y-67748999D02*
X118059000Y-68649001D01*
G75*
G02*
X117809001Y-68899000I-249999J0D01*
G01*
X117108999Y-68899000D01*
G75*
G02*
X116859000Y-68649001I0J249999D01*
G01*
X116859000Y-67748999D01*
G75*
G02*
X117108999Y-67499000I249999J0D01*
G01*
X117809001Y-67499000D01*
G75*
G02*
X118059000Y-67748999I0J-249999D01*
G01*
G37*
G04 #@! TD.AperFunction*
G04 #@! TA.AperFunction,SMDPad,CuDef*
G36*
G01*
X126528500Y-76525000D02*
X126528500Y-77475000D01*
G75*
G02*
X126278500Y-77725000I-250000J0D01*
G01*
X125603500Y-77725000D01*
G75*
G02*
X125353500Y-77475000I0J250000D01*
G01*
X125353500Y-76525000D01*
G75*
G02*
X125603500Y-76275000I250000J0D01*
G01*
X126278500Y-76275000D01*
G75*
G02*
X126528500Y-76525000I0J-250000D01*
G01*
G37*
G04 #@! TD.AperFunction*
G04 #@! TA.AperFunction,SMDPad,CuDef*
G36*
G01*
X128603500Y-76525000D02*
X128603500Y-77475000D01*
G75*
G02*
X128353500Y-77725000I-250000J0D01*
G01*
X127678500Y-77725000D01*
G75*
G02*
X127428500Y-77475000I0J250000D01*
G01*
X127428500Y-76525000D01*
G75*
G02*
X127678500Y-76275000I250000J0D01*
G01*
X128353500Y-76275000D01*
G75*
G02*
X128603500Y-76525000I0J-250000D01*
G01*
G37*
G04 #@! TD.AperFunction*
D11*
X133350000Y-71691500D03*
X130810000Y-71691500D03*
X128270000Y-71691500D03*
X125730000Y-71691500D03*
X123190000Y-71691500D03*
D12*
X120650000Y-71691500D03*
D10*
X138427500Y-70655000D03*
X136527500Y-70655000D03*
X137477500Y-72855000D03*
D13*
X124288000Y-79121000D03*
X124288000Y-80391000D03*
X124288000Y-81661000D03*
X124288000Y-82931000D03*
X129712000Y-82931000D03*
X129712000Y-81661000D03*
X129712000Y-80391000D03*
X129712000Y-79121000D03*
G04 #@! TA.AperFunction,SMDPad,CuDef*
G36*
G01*
X120072999Y-79521000D02*
X120973001Y-79521000D01*
G75*
G02*
X121223000Y-79770999I0J-249999D01*
G01*
X121223000Y-80471001D01*
G75*
G02*
X120973001Y-80721000I-249999J0D01*
G01*
X120072999Y-80721000D01*
G75*
G02*
X119823000Y-80471001I0J249999D01*
G01*
X119823000Y-79770999D01*
G75*
G02*
X120072999Y-79521000I249999J0D01*
G01*
G37*
G04 #@! TD.AperFunction*
G04 #@! TA.AperFunction,SMDPad,CuDef*
G36*
G01*
X120072999Y-77521000D02*
X120973001Y-77521000D01*
G75*
G02*
X121223000Y-77770999I0J-249999D01*
G01*
X121223000Y-78471001D01*
G75*
G02*
X120973001Y-78721000I-249999J0D01*
G01*
X120072999Y-78721000D01*
G75*
G02*
X119823000Y-78471001I0J249999D01*
G01*
X119823000Y-77770999D01*
G75*
G02*
X120072999Y-77521000I249999J0D01*
G01*
G37*
G04 #@! TD.AperFunction*
G04 #@! TA.AperFunction,SMDPad,CuDef*
G36*
G01*
X117659999Y-79521000D02*
X118560001Y-79521000D01*
G75*
G02*
X118810000Y-79770999I0J-249999D01*
G01*
X118810000Y-80471001D01*
G75*
G02*
X118560001Y-80721000I-249999J0D01*
G01*
X117659999Y-80721000D01*
G75*
G02*
X117410000Y-80471001I0J249999D01*
G01*
X117410000Y-79770999D01*
G75*
G02*
X117659999Y-79521000I249999J0D01*
G01*
G37*
G04 #@! TD.AperFunction*
G04 #@! TA.AperFunction,SMDPad,CuDef*
G36*
G01*
X117659999Y-77521000D02*
X118560001Y-77521000D01*
G75*
G02*
X118810000Y-77770999I0J-249999D01*
G01*
X118810000Y-78471001D01*
G75*
G02*
X118560001Y-78721000I-249999J0D01*
G01*
X117659999Y-78721000D01*
G75*
G02*
X117410000Y-78471001I0J249999D01*
G01*
X117410000Y-77770999D01*
G75*
G02*
X117659999Y-77521000I249999J0D01*
G01*
G37*
G04 #@! TD.AperFunction*
G04 #@! TA.AperFunction,SMDPad,CuDef*
G36*
G01*
X114827000Y-80079001D02*
X114827000Y-79178999D01*
G75*
G02*
X115076999Y-78929000I249999J0D01*
G01*
X115777001Y-78929000D01*
G75*
G02*
X116027000Y-79178999I0J-249999D01*
G01*
X116027000Y-80079001D01*
G75*
G02*
X115777001Y-80329000I-249999J0D01*
G01*
X115076999Y-80329000D01*
G75*
G02*
X114827000Y-80079001I0J249999D01*
G01*
G37*
G04 #@! TD.AperFunction*
G04 #@! TA.AperFunction,SMDPad,CuDef*
G36*
G01*
X112827000Y-80079001D02*
X112827000Y-79178999D01*
G75*
G02*
X113076999Y-78929000I249999J0D01*
G01*
X113777001Y-78929000D01*
G75*
G02*
X114027000Y-79178999I0J-249999D01*
G01*
X114027000Y-80079001D01*
G75*
G02*
X113777001Y-80329000I-249999J0D01*
G01*
X113076999Y-80329000D01*
G75*
G02*
X112827000Y-80079001I0J249999D01*
G01*
G37*
G04 #@! TD.AperFunction*
G04 #@! TA.AperFunction,SMDPad,CuDef*
G36*
G01*
X114027000Y-81464999D02*
X114027000Y-82365001D01*
G75*
G02*
X113777001Y-82615000I-249999J0D01*
G01*
X113076999Y-82615000D01*
G75*
G02*
X112827000Y-82365001I0J249999D01*
G01*
X112827000Y-81464999D01*
G75*
G02*
X113076999Y-81215000I249999J0D01*
G01*
X113777001Y-81215000D01*
G75*
G02*
X114027000Y-81464999I0J-249999D01*
G01*
G37*
G04 #@! TD.AperFunction*
G04 #@! TA.AperFunction,SMDPad,CuDef*
G36*
G01*
X116027000Y-81464999D02*
X116027000Y-82365001D01*
G75*
G02*
X115777001Y-82615000I-249999J0D01*
G01*
X115076999Y-82615000D01*
G75*
G02*
X114827000Y-82365001I0J249999D01*
G01*
X114827000Y-81464999D01*
G75*
G02*
X115076999Y-81215000I249999J0D01*
G01*
X115777001Y-81215000D01*
G75*
G02*
X116027000Y-81464999I0J-249999D01*
G01*
G37*
G04 #@! TD.AperFunction*
G04 #@! TA.AperFunction,SMDPad,CuDef*
G36*
G01*
X139173000Y-79051999D02*
X139173000Y-79952001D01*
G75*
G02*
X138923001Y-80202000I-249999J0D01*
G01*
X138222999Y-80202000D01*
G75*
G02*
X137973000Y-79952001I0J249999D01*
G01*
X137973000Y-79051999D01*
G75*
G02*
X138222999Y-78802000I249999J0D01*
G01*
X138923001Y-78802000D01*
G75*
G02*
X139173000Y-79051999I0J-249999D01*
G01*
G37*
G04 #@! TD.AperFunction*
G04 #@! TA.AperFunction,SMDPad,CuDef*
G36*
G01*
X141173000Y-79051999D02*
X141173000Y-79952001D01*
G75*
G02*
X140923001Y-80202000I-249999J0D01*
G01*
X140222999Y-80202000D01*
G75*
G02*
X139973000Y-79952001I0J249999D01*
G01*
X139973000Y-79051999D01*
G75*
G02*
X140222999Y-78802000I249999J0D01*
G01*
X140923001Y-78802000D01*
G75*
G02*
X141173000Y-79051999I0J-249999D01*
G01*
G37*
G04 #@! TD.AperFunction*
G04 #@! TA.AperFunction,SMDPad,CuDef*
G36*
G01*
X137195000Y-82746001D02*
X137195000Y-81845999D01*
G75*
G02*
X137444999Y-81596000I249999J0D01*
G01*
X138145001Y-81596000D01*
G75*
G02*
X138395000Y-81845999I0J-249999D01*
G01*
X138395000Y-82746001D01*
G75*
G02*
X138145001Y-82996000I-249999J0D01*
G01*
X137444999Y-82996000D01*
G75*
G02*
X137195000Y-82746001I0J249999D01*
G01*
G37*
G04 #@! TD.AperFunction*
G04 #@! TA.AperFunction,SMDPad,CuDef*
G36*
G01*
X135195000Y-82746001D02*
X135195000Y-81845999D01*
G75*
G02*
X135444999Y-81596000I249999J0D01*
G01*
X136145001Y-81596000D01*
G75*
G02*
X136395000Y-81845999I0J-249999D01*
G01*
X136395000Y-82746001D01*
G75*
G02*
X136145001Y-82996000I-249999J0D01*
G01*
X135444999Y-82996000D01*
G75*
G02*
X135195000Y-82746001I0J249999D01*
G01*
G37*
G04 #@! TD.AperFunction*
G04 #@! TA.AperFunction,SMDPad,CuDef*
G36*
G01*
X135439999Y-79521000D02*
X136340001Y-79521000D01*
G75*
G02*
X136590000Y-79770999I0J-249999D01*
G01*
X136590000Y-80471001D01*
G75*
G02*
X136340001Y-80721000I-249999J0D01*
G01*
X135439999Y-80721000D01*
G75*
G02*
X135190000Y-80471001I0J249999D01*
G01*
X135190000Y-79770999D01*
G75*
G02*
X135439999Y-79521000I249999J0D01*
G01*
G37*
G04 #@! TD.AperFunction*
G04 #@! TA.AperFunction,SMDPad,CuDef*
G36*
G01*
X135439999Y-77521000D02*
X136340001Y-77521000D01*
G75*
G02*
X136590000Y-77770999I0J-249999D01*
G01*
X136590000Y-78471001D01*
G75*
G02*
X136340001Y-78721000I-249999J0D01*
G01*
X135439999Y-78721000D01*
G75*
G02*
X135190000Y-78471001I0J249999D01*
G01*
X135190000Y-77770999D01*
G75*
G02*
X135439999Y-77521000I249999J0D01*
G01*
G37*
G04 #@! TD.AperFunction*
G04 #@! TA.AperFunction,SMDPad,CuDef*
G36*
G01*
X133927001Y-78721000D02*
X133026999Y-78721000D01*
G75*
G02*
X132777000Y-78471001I0J249999D01*
G01*
X132777000Y-77770999D01*
G75*
G02*
X133026999Y-77521000I249999J0D01*
G01*
X133927001Y-77521000D01*
G75*
G02*
X134177000Y-77770999I0J-249999D01*
G01*
X134177000Y-78471001D01*
G75*
G02*
X133927001Y-78721000I-249999J0D01*
G01*
G37*
G04 #@! TD.AperFunction*
G04 #@! TA.AperFunction,SMDPad,CuDef*
G36*
G01*
X133927001Y-80721000D02*
X133026999Y-80721000D01*
G75*
G02*
X132777000Y-80471001I0J249999D01*
G01*
X132777000Y-79770999D01*
G75*
G02*
X133026999Y-79521000I249999J0D01*
G01*
X133927001Y-79521000D01*
G75*
G02*
X134177000Y-79770999I0J-249999D01*
G01*
X134177000Y-80471001D01*
G75*
G02*
X133927001Y-80721000I-249999J0D01*
G01*
G37*
G04 #@! TD.AperFunction*
G04 #@! TA.AperFunction,SMDPad,CuDef*
G36*
G01*
X109459000Y-68125501D02*
X109459000Y-66875499D01*
G75*
G02*
X109708999Y-66625500I249999J0D01*
G01*
X110509001Y-66625500D01*
G75*
G02*
X110759000Y-66875499I0J-249999D01*
G01*
X110759000Y-68125501D01*
G75*
G02*
X110509001Y-68375500I-249999J0D01*
G01*
X109708999Y-68375500D01*
G75*
G02*
X109459000Y-68125501I0J249999D01*
G01*
G37*
G04 #@! TD.AperFunction*
G04 #@! TA.AperFunction,SMDPad,CuDef*
G36*
G01*
X112559000Y-68125501D02*
X112559000Y-66875499D01*
G75*
G02*
X112808999Y-66625500I249999J0D01*
G01*
X113609001Y-66625500D01*
G75*
G02*
X113859000Y-66875499I0J-249999D01*
G01*
X113859000Y-68125501D01*
G75*
G02*
X113609001Y-68375500I-249999J0D01*
G01*
X112808999Y-68375500D01*
G75*
G02*
X112559000Y-68125501I0J249999D01*
G01*
G37*
G04 #@! TD.AperFunction*
G04 #@! TA.AperFunction,SMDPad,CuDef*
G36*
G01*
X141340000Y-66875499D02*
X141340000Y-68125501D01*
G75*
G02*
X141090001Y-68375500I-249999J0D01*
G01*
X140289999Y-68375500D01*
G75*
G02*
X140040000Y-68125501I0J249999D01*
G01*
X140040000Y-66875499D01*
G75*
G02*
X140289999Y-66625500I249999J0D01*
G01*
X141090001Y-66625500D01*
G75*
G02*
X141340000Y-66875499I0J-249999D01*
G01*
G37*
G04 #@! TD.AperFunction*
G04 #@! TA.AperFunction,SMDPad,CuDef*
G36*
G01*
X144440000Y-66875499D02*
X144440000Y-68125501D01*
G75*
G02*
X144190001Y-68375500I-249999J0D01*
G01*
X143389999Y-68375500D01*
G75*
G02*
X143140000Y-68125501I0J249999D01*
G01*
X143140000Y-66875499D01*
G75*
G02*
X143389999Y-66625500I249999J0D01*
G01*
X144190001Y-66625500D01*
G75*
G02*
X144440000Y-66875499I0J-249999D01*
G01*
G37*
G04 #@! TD.AperFunction*
G04 #@! TA.AperFunction,SMDPad,CuDef*
G36*
G01*
X112559000Y-70665501D02*
X112559000Y-69415499D01*
G75*
G02*
X112808999Y-69165500I249999J0D01*
G01*
X113609001Y-69165500D01*
G75*
G02*
X113859000Y-69415499I0J-249999D01*
G01*
X113859000Y-70665501D01*
G75*
G02*
X113609001Y-70915500I-249999J0D01*
G01*
X112808999Y-70915500D01*
G75*
G02*
X112559000Y-70665501I0J249999D01*
G01*
G37*
G04 #@! TD.AperFunction*
G04 #@! TA.AperFunction,SMDPad,CuDef*
G36*
G01*
X109459000Y-70665501D02*
X109459000Y-69415499D01*
G75*
G02*
X109708999Y-69165500I249999J0D01*
G01*
X110509001Y-69165500D01*
G75*
G02*
X110759000Y-69415499I0J-249999D01*
G01*
X110759000Y-70665501D01*
G75*
G02*
X110509001Y-70915500I-249999J0D01*
G01*
X109708999Y-70915500D01*
G75*
G02*
X109459000Y-70665501I0J249999D01*
G01*
G37*
G04 #@! TD.AperFunction*
G04 #@! TA.AperFunction,SMDPad,CuDef*
G36*
G01*
X144466000Y-69415499D02*
X144466000Y-70665501D01*
G75*
G02*
X144216001Y-70915500I-249999J0D01*
G01*
X143415999Y-70915500D01*
G75*
G02*
X143166000Y-70665501I0J249999D01*
G01*
X143166000Y-69415499D01*
G75*
G02*
X143415999Y-69165500I249999J0D01*
G01*
X144216001Y-69165500D01*
G75*
G02*
X144466000Y-69415499I0J-249999D01*
G01*
G37*
G04 #@! TD.AperFunction*
G04 #@! TA.AperFunction,SMDPad,CuDef*
G36*
G01*
X141366000Y-69415499D02*
X141366000Y-70665501D01*
G75*
G02*
X141116001Y-70915500I-249999J0D01*
G01*
X140315999Y-70915500D01*
G75*
G02*
X140066000Y-70665501I0J249999D01*
G01*
X140066000Y-69415499D01*
G75*
G02*
X140315999Y-69165500I249999J0D01*
G01*
X141116001Y-69165500D01*
G75*
G02*
X141366000Y-69415499I0J-249999D01*
G01*
G37*
G04 #@! TD.AperFunction*
G04 #@! TA.AperFunction,SMDPad,CuDef*
G36*
G01*
X126660000Y-67446999D02*
X126660000Y-68697001D01*
G75*
G02*
X126410001Y-68947000I-249999J0D01*
G01*
X125609999Y-68947000D01*
G75*
G02*
X125360000Y-68697001I0J249999D01*
G01*
X125360000Y-67446999D01*
G75*
G02*
X125609999Y-67197000I249999J0D01*
G01*
X126410001Y-67197000D01*
G75*
G02*
X126660000Y-67446999I0J-249999D01*
G01*
G37*
G04 #@! TD.AperFunction*
G04 #@! TA.AperFunction,SMDPad,CuDef*
G36*
G01*
X123560000Y-67446999D02*
X123560000Y-68697001D01*
G75*
G02*
X123310001Y-68947000I-249999J0D01*
G01*
X122509999Y-68947000D01*
G75*
G02*
X122260000Y-68697001I0J249999D01*
G01*
X122260000Y-67446999D01*
G75*
G02*
X122509999Y-67197000I249999J0D01*
G01*
X123310001Y-67197000D01*
G75*
G02*
X123560000Y-67446999I0J-249999D01*
G01*
G37*
G04 #@! TD.AperFunction*
G04 #@! TA.AperFunction,SMDPad,CuDef*
G36*
G01*
X131165000Y-67597000D02*
X131165000Y-68547000D01*
G75*
G02*
X130915000Y-68797000I-250000J0D01*
G01*
X130240000Y-68797000D01*
G75*
G02*
X129990000Y-68547000I0J250000D01*
G01*
X129990000Y-67597000D01*
G75*
G02*
X130240000Y-67347000I250000J0D01*
G01*
X130915000Y-67347000D01*
G75*
G02*
X131165000Y-67597000I0J-250000D01*
G01*
G37*
G04 #@! TD.AperFunction*
G04 #@! TA.AperFunction,SMDPad,CuDef*
G36*
G01*
X129090000Y-67597000D02*
X129090000Y-68547000D01*
G75*
G02*
X128840000Y-68797000I-250000J0D01*
G01*
X128165000Y-68797000D01*
G75*
G02*
X127915000Y-68547000I0J250000D01*
G01*
X127915000Y-67597000D01*
G75*
G02*
X128165000Y-67347000I250000J0D01*
G01*
X128840000Y-67347000D01*
G75*
G02*
X129090000Y-67597000I0J-250000D01*
G01*
G37*
G04 #@! TD.AperFunction*
G04 #@! TA.AperFunction,SMDPad,CuDef*
G36*
G01*
X119496000Y-74304999D02*
X119496000Y-75555001D01*
G75*
G02*
X119246001Y-75805000I-249999J0D01*
G01*
X118445999Y-75805000D01*
G75*
G02*
X118196000Y-75555001I0J249999D01*
G01*
X118196000Y-74304999D01*
G75*
G02*
X118445999Y-74055000I249999J0D01*
G01*
X119246001Y-74055000D01*
G75*
G02*
X119496000Y-74304999I0J-249999D01*
G01*
G37*
G04 #@! TD.AperFunction*
G04 #@! TA.AperFunction,SMDPad,CuDef*
G36*
G01*
X122596000Y-74304999D02*
X122596000Y-75555001D01*
G75*
G02*
X122346001Y-75805000I-249999J0D01*
G01*
X121545999Y-75805000D01*
G75*
G02*
X121296000Y-75555001I0J249999D01*
G01*
X121296000Y-74304999D01*
G75*
G02*
X121545999Y-74055000I249999J0D01*
G01*
X122346001Y-74055000D01*
G75*
G02*
X122596000Y-74304999I0J-249999D01*
G01*
G37*
G04 #@! TD.AperFunction*
D14*
X144399000Y-82296000D03*
X108204000Y-81915000D03*
D15*
X125962500Y-79206000D03*
D14*
X135509000Y-69596000D03*
X121285000Y-66675000D03*
X108966000Y-78359000D03*
X144526000Y-79502000D03*
D15*
X131572000Y-78105000D03*
X122682000Y-78105000D03*
D14*
X132715000Y-68072000D03*
D15*
X129667000Y-74930000D03*
X124333000Y-74930000D03*
D16*
X137795000Y-82296000D02*
X144399000Y-82296000D01*
X113427000Y-81915000D02*
X108204000Y-81915000D01*
X125941000Y-77067500D02*
X125962500Y-77089000D01*
X125650500Y-82931000D02*
X124288000Y-82931000D01*
X125962500Y-82619000D02*
X125650500Y-82931000D01*
X125962500Y-77089000D02*
X125962500Y-79206000D01*
X125962500Y-79206000D02*
X125962500Y-82619000D01*
D17*
X136527500Y-70655000D02*
X136527500Y-71054000D01*
X136527500Y-70614500D02*
X135509000Y-69596000D01*
X136527500Y-70655000D02*
X136527500Y-70614500D01*
X121513000Y-66675000D02*
X122910000Y-68072000D01*
X121285000Y-66675000D02*
X121513000Y-66675000D01*
X120597999Y-71743501D02*
X120650000Y-71691500D01*
X115445500Y-70793499D02*
X116470501Y-71818500D01*
X118046500Y-71818500D02*
X120649998Y-71818500D01*
X116522500Y-71818500D02*
X118046500Y-71818500D01*
X120650000Y-73126000D02*
X118846000Y-74930000D01*
X120650000Y-71691500D02*
X120650000Y-73126000D01*
D16*
X128037500Y-77089000D02*
X128037500Y-77446500D01*
X128016000Y-77067500D02*
X128037500Y-77089000D01*
X127927000Y-77000000D02*
X128016000Y-77000000D01*
X129712000Y-78696000D02*
X128016000Y-77000000D01*
X129712000Y-79121000D02*
X129712000Y-78696000D01*
X128016000Y-77000000D02*
X128016000Y-76454000D01*
X128016000Y-76962000D02*
X126873000Y-75819000D01*
X126873000Y-72834500D02*
X125730000Y-71691500D01*
X126873000Y-75819000D02*
X126873000Y-72834500D01*
X118110000Y-80121000D02*
X120523000Y-80121000D01*
X120523000Y-80121000D02*
X122094500Y-80121000D01*
X122364500Y-80391000D02*
X124288000Y-80391000D01*
X122094500Y-80121000D02*
X122364500Y-80391000D01*
X115427000Y-79629000D02*
X115427000Y-81915000D01*
X115427000Y-81915000D02*
X122110500Y-81915000D01*
X122364500Y-81661000D02*
X124288000Y-81661000D01*
X122110500Y-81915000D02*
X122364500Y-81661000D01*
X138573000Y-79518000D02*
X135795000Y-82296000D01*
X138573000Y-79502000D02*
X138573000Y-79518000D01*
X135795000Y-82296000D02*
X133223000Y-82296000D01*
X132588000Y-82931000D02*
X129712000Y-82931000D01*
X133223000Y-82296000D02*
X132588000Y-82931000D01*
X133477000Y-80121000D02*
X135890000Y-80121000D01*
X133477000Y-80121000D02*
X132985000Y-80121000D01*
X131445000Y-81661000D02*
X129712000Y-81661000D01*
X132985000Y-80121000D02*
X131445000Y-81661000D01*
D17*
X126010000Y-68072000D02*
X128502500Y-68072000D01*
D16*
X115459000Y-68832000D02*
X117345500Y-70718500D01*
X115459000Y-68199000D02*
X115459000Y-68832000D01*
X138430000Y-70652500D02*
X138427500Y-70655000D01*
X138430000Y-67818000D02*
X138430000Y-70652500D01*
D17*
X110109000Y-67500500D02*
X110109000Y-70040500D01*
X110109000Y-70485000D02*
X110109000Y-70040500D01*
X108204000Y-72390000D02*
X110109000Y-70485000D01*
X108204000Y-77724000D02*
X108204000Y-72390000D01*
X108966000Y-78359000D02*
X108204000Y-77724000D01*
X110363000Y-79629000D02*
X113427000Y-79629000D01*
X108966000Y-78359000D02*
X110363000Y-79629000D01*
X144526000Y-79502000D02*
X140573000Y-79502000D01*
X145859500Y-78168500D02*
X144526000Y-79502000D01*
X145859500Y-72580500D02*
X145859500Y-78168500D01*
X143790000Y-70014500D02*
X143816000Y-70040500D01*
X143790000Y-67500500D02*
X143790000Y-70014500D01*
X143816000Y-70537000D02*
X145859500Y-72580500D01*
X143816000Y-70040500D02*
X143816000Y-70537000D01*
D16*
X131445000Y-78105000D02*
X131572000Y-78105000D01*
X130810000Y-71691500D02*
X130810000Y-72009000D01*
X133461000Y-78105000D02*
X133477000Y-78121000D01*
X131572000Y-78105000D02*
X133461000Y-78105000D01*
X130674500Y-80391000D02*
X129712000Y-80391000D01*
X131572000Y-79493500D02*
X130674500Y-80391000D01*
X131572000Y-78105000D02*
X131572000Y-79493500D01*
X117459000Y-68199000D02*
X118364000Y-68199000D01*
X118364000Y-68199000D02*
X120015000Y-69850000D01*
X120015000Y-69850000D02*
X127635000Y-69850000D01*
X128270000Y-70485000D02*
X128270000Y-71691500D01*
X127635000Y-69850000D02*
X128270000Y-70485000D01*
X136430000Y-67818000D02*
X135382000Y-67818000D01*
X133350000Y-69850000D02*
X127635000Y-69850000D01*
X135382000Y-67818000D02*
X133350000Y-69850000D01*
X123190000Y-71691500D02*
X123190000Y-71755000D01*
X120539000Y-78105000D02*
X120523000Y-78121000D01*
X122682000Y-78105000D02*
X120539000Y-78105000D01*
X123272000Y-78105000D02*
X124288000Y-79121000D01*
X122682000Y-78105000D02*
X123272000Y-78105000D01*
D17*
X130577500Y-68072000D02*
X132715000Y-68072000D01*
D16*
X133350000Y-71691500D02*
X133350000Y-74295000D01*
X133350000Y-74295000D02*
X132715000Y-74930000D01*
X132715000Y-74930000D02*
X129667000Y-74930000D01*
X121946000Y-74930000D02*
X124333000Y-74930000D01*
X116395500Y-76406500D02*
X118110000Y-78121000D01*
X116395500Y-72918500D02*
X116395500Y-76406500D01*
D17*
X116087000Y-72918500D02*
X116395500Y-72918500D01*
X113209000Y-67500500D02*
X113209000Y-70040500D01*
X113209000Y-70040500D02*
X113209000Y-70664000D01*
X115463500Y-72918500D02*
X116087000Y-72918500D01*
X113209000Y-70664000D02*
X115463500Y-72918500D01*
D16*
X137477500Y-76533500D02*
X135890000Y-78121000D01*
X137477500Y-72855000D02*
X137477500Y-76533500D01*
D17*
X140690000Y-70014500D02*
X140716000Y-70040500D01*
X140690000Y-67500500D02*
X140690000Y-70014500D01*
X137901500Y-72855000D02*
X137477500Y-72855000D01*
X140716000Y-70040500D02*
X140716000Y-70739000D01*
X138600000Y-72855000D02*
X137477500Y-72855000D01*
X140716000Y-70739000D02*
X138600000Y-72855000D01*
M02*
