%FSLAX45Y45*%
G04 Gerber Fmt 4.5, Leading zero omitted, Abs format (unit mm)*
G04 Created by KiCad (PCBNEW 5.1.12-84ad8e8a86~92~ubuntu20.04.1) date 2021-12-15 18:14:52*
%MOMM*%
%LPD*%
G01*
G04 APERTURE LIST*
%TA.AperFunction,Profile*%
%ADD10C,0.100000*%
%TD*%
%ADD11C,0.200000*%
%ADD12C,0.300000*%
G04 APERTURE END LIST*
D10*
X14700000Y-6550000D02*
X14700000Y-8450000D01*
X10700000Y-6550000D02*
X14700000Y-6550000D01*
X10700000Y-8450000D02*
X10700000Y-6550000D01*
X14700000Y-8450000D02*
X10700000Y-8450000D01*
D11*
D12*
X10981428Y-8920714D02*
X10981428Y-8620714D01*
X11052857Y-8620714D01*
X11095714Y-8635000D01*
X11124286Y-8663572D01*
X11138571Y-8692143D01*
X11152857Y-8749286D01*
X11152857Y-8792143D01*
X11138571Y-8849286D01*
X11124286Y-8877857D01*
X11095714Y-8906429D01*
X11052857Y-8920714D01*
X10981428Y-8920714D01*
X11281428Y-8920714D02*
X11281428Y-8720714D01*
X11281428Y-8777857D02*
X11295714Y-8749286D01*
X11310000Y-8735000D01*
X11338571Y-8720714D01*
X11367143Y-8720714D01*
X11467143Y-8920714D02*
X11467143Y-8720714D01*
X11467143Y-8620714D02*
X11452857Y-8635000D01*
X11467143Y-8649286D01*
X11481428Y-8635000D01*
X11467143Y-8620714D01*
X11467143Y-8649286D01*
X11652857Y-8920714D02*
X11624286Y-8906429D01*
X11610000Y-8877857D01*
X11610000Y-8620714D01*
X11810000Y-8920714D02*
X11781428Y-8906429D01*
X11767143Y-8877857D01*
X11767143Y-8620714D01*
X12152857Y-8920714D02*
X12152857Y-8620714D01*
X12252857Y-8835000D01*
X12352857Y-8620714D01*
X12352857Y-8920714D01*
X12624286Y-8920714D02*
X12624286Y-8763572D01*
X12610000Y-8735000D01*
X12581428Y-8720714D01*
X12524286Y-8720714D01*
X12495714Y-8735000D01*
X12624286Y-8906429D02*
X12595714Y-8920714D01*
X12524286Y-8920714D01*
X12495714Y-8906429D01*
X12481428Y-8877857D01*
X12481428Y-8849286D01*
X12495714Y-8820714D01*
X12524286Y-8806429D01*
X12595714Y-8806429D01*
X12624286Y-8792143D01*
X12767143Y-8720714D02*
X12767143Y-9020714D01*
X12767143Y-8735000D02*
X12795714Y-8720714D01*
X12852857Y-8720714D01*
X12881428Y-8735000D01*
X12895714Y-8749286D01*
X12910000Y-8777857D01*
X12910000Y-8863572D01*
X12895714Y-8892143D01*
X12881428Y-8906429D01*
X12852857Y-8920714D01*
X12795714Y-8920714D01*
X12767143Y-8906429D01*
X13038571Y-8892143D02*
X13052857Y-8906429D01*
X13038571Y-8920714D01*
X13024286Y-8906429D01*
X13038571Y-8892143D01*
X13038571Y-8920714D01*
X13038571Y-8735000D02*
X13052857Y-8749286D01*
X13038571Y-8763572D01*
X13024286Y-8749286D01*
X13038571Y-8735000D01*
X13038571Y-8763572D01*
M02*
