$ 1 0.0000049999999999999996 1.1208435524800693 46 5 43 5e-11
f 336 144 336 208 33 1.5 5.8
R 288 112 288 64 0 0 40 3.8 0 0 0.5
w 496 208 496 224 0
g 608 448 608 512 0 0
w 288 112 288 208 0
w 288 208 320 208 0
w 416 144 592 144 0
s 688 96 688 144 0 1 false
r 720 144 720 192 0 100000
g 720 192 720 208 0 0
R 688 96 688 64 0 0 40 5 0 0 0.5
r 608 352 608 400 0 1
t 560 432 608 432 0 1 -3.792239854574959 2.140731954116101e-9 100 default
w 608 416 608 400 0
R 496 384 496 352 4 5 100 3 0 0 0.5
r 560 432 560 384 0 550
f 416 144 416 208 41 1.5 5.8
w 352 208 400 208 0
w 416 144 336 144 0
w 592 144 592 176 0
w 688 144 592 144 0
162 608 304 608 352 2 default-led 1 0 0 0.8
x 274 313 326 316 4 24 Load
x 270 37 471 40 4 18 Power\spath\smanagement
b 255 16 767 229 0
w 688 144 720 144 0
162 384 304 384 352 2 default-led 1 0 0 0.8
r 432 432 432 384 0 550
w 384 416 384 400 0
t 432 432 384 432 0 1 -3.7922465180394886 2.1407357133829544e-9 100 default
r 384 352 384 400 0 1
g 384 448 384 512 0 0
w 432 384 496 384 0
w 496 384 560 384 0
w 384 304 496 304 0
w 496 304 608 304 0
b 255 283 767 496 0
370 496 224 496 304 1 0 0
x 583 113 684 116 4 8 USB\scable\splugged\qCLOSED
p 688 304 688 352 1 0 0
w 608 304 688 304 0
w 688 352 608 352 0
370 432 208 496 208 1 0 0
370 592 208 496 208 1 0 0
x 583 125 682 128 4 8 USB\scable\sunplugged\qOPEN
34 fwdrop\q1.15 1 0.0000049999999999999996 0 3.176322209807407 600 6
d 592 176 592 208 2 fwdrop\q1.15
o 37 4 0 x81213 3.799999968404229 1.6355625745591333 0 2 1.25 0 37 3 0.5 0
